<?xml version="1.0" standalone="no"?>
<!DOCTYPE svg PUBLIC "-//W3C//DTD SVG 1.1//EN" "http://www.w3.org/Graphics/SVG/1.1/DTD/svg11.dtd" >
<svg xmlns="http://www.w3.org/2000/svg">
<metadata>Generated by IcoMoon</metadata>
<defs>
<font id="icomoon" horiz-adv-x="1024">
<font-face units-per-em="1024" ascent="960" descent="-64" />
<missing-glyph horiz-adv-x="1024" />
<glyph unicode="&#x20;" horiz-adv-x="512" d="" />
<glyph unicode="&#xe900;" glyph-name="days-01" d="M319.137 930.743c-9.372 0-16.969-7.597-16.969-16.969v0-71.739h-182.623c-46.105-0.067-83.463-37.424-83.529-83.523v-709.697c0.033-46.124 37.407-83.508 83.524-83.558h637.81v1.024l5.676-1.024c4.58 0.078 8.704 1.964 11.702 4.973l221.77 221.77c2.587 2.849 4.17 6.649 4.17 10.82 0 0.424-0.016 0.844-0.049 1.26l0.003-0.055v5.237h0.848v549.244c-0.050 46.102-37.401 83.463-83.494 83.529h-138.305v71.739c0 9.372-7.597 16.969-16.969 16.969v0c0 0 0 0 0 0-9.378 0-16.982-7.594-16.998-16.968v-71.741h-409.6v71.739c0 9.372-7.597 16.969-16.969 16.969v0zM779.878 23.274v114.278c0.116 27.32 22.24 49.433 49.552 49.532h114.258zM967.709 221.052h-138.269c-46.039-0.133-83.316-37.452-83.383-83.493v-138.275h-626.103c0 0 0 0 0 0-27.397 0-49.62 22.151-49.737 49.521v537.494h897.492zM336.457 714.24v93.828h409.6v-54.74h-5.208c-0.043 0-0.095 0-0.146 0-21.636 0-39.175-17.539-39.175-39.175s17.539-39.175 39.175-39.175c21.636 0 39.175 17.539 39.175 39.175 0 0.031 0 0.062 0 0.092v-0.005 93.828h138.269c27.332-0.099 49.462-22.23 49.562-49.552v-138.249h-897.492v138.24c0.099 27.322 22.213 49.446 49.521 49.562h182.634v-54.74h-5.208c-21.586-0.067-39.058-17.58-39.058-39.175 0-21.636 17.539-39.175 39.175-39.175s39.175 17.539 39.175 39.175c0 0.031 0 0.062 0 0.092v-0.005zM469.021 206.541l101.903 200.997h-124.050c-0.096-0.003-0.209-0.004-0.322-0.004-6.997 0-12.668 5.672-12.668 12.668 0 0.001 0 0.003 0 0.004v0c0.147 7.012 5.866 12.639 12.9 12.639 0.032 0 0.064 0 0.095 0h144.116c7.724 0 13.341-4.564 13.341-12.317-0.335-4.577-1.728-8.768-3.932-12.413l0.070 0.125-106.028-213.285c-2.926-5.851-7.402-9.86-13.371-9.86-0.177-0.008-0.384-0.013-0.592-0.013-7.283 0-13.215 5.785-13.451 13.011l-0.001 0.022c0.224 3.089 0.934 5.954 2.056 8.603l-0.066-0.177z" />
<glyph unicode="&#xe901;" glyph-name="days-011" d="M319.342 930.743c-9.372 0-16.969-7.597-16.969-16.969v0-71.739h-182.623c-46.105-0.067-83.463-37.424-83.529-83.523v-709.697c0.033-46.124 37.407-83.508 83.524-83.558h638.015v1.024l5.851-1.024c4.526 0.118 8.592 1.997 11.556 4.973l221.77 221.77c2.587 2.849 4.17 6.649 4.17 10.82 0 0.424-0.016 0.844-0.049 1.26l0.003-0.055v5.237h0.848v549.244c-0.050 46.102-37.401 83.463-83.494 83.529h-138.539v71.739c0 9.372-7.597 16.969-16.969 16.969v0c-9.315-0.083-16.836-7.645-16.852-16.968v-71.741h-409.6v71.739c0 0 0 0 0 0.001 0 9.372-7.597 16.969-16.969 16.969-0.051 0-0.103 0-0.154-0.001h0.008zM780.083 23.274v114.278c0.116 27.32 22.24 49.433 49.552 49.532h114.258zM967.914 221.052h-138.269c-46.12-0.033-83.504-37.387-83.588-83.492v-138.277h-626.103c-27.322 0.099-49.446 22.213-49.562 49.521v537.494h897.521zM336.457 714.24v93.828h409.6v-54.74h-5.179c-21.623-0.017-39.146-17.55-39.146-39.175 0-21.636 17.539-39.175 39.175-39.175s39.175 17.539 39.175 39.175c0 0.031 0 0.062 0 0.093v-0.005 93.828h138.269c27.332-0.099 49.462-22.23 49.562-49.552v-138.249h-897.521v138.24c0.099 27.332 22.23 49.462 49.552 49.562h182.632v-54.74h-5.208c-0.026 0-0.057 0-0.088 0-21.636 0-39.175-17.539-39.175-39.175s17.539-39.175 39.175-39.175c21.636 0 39.175 17.539 39.175 39.175 0 0.031 0 0.062 0 0.093v-0.005zM401.057 406.835l-34.436-11.235c-1.737-0.618-3.741-0.999-5.826-1.053l-0.025-0.001c-6.572 0.065-11.884 5.367-11.966 11.929v0.008c0 5.851 3.862 9.83 9.86 11.937l40.404 14.073c4.445 1.691 9.588 2.822 14.947 3.152l0.15 0.007h0.702c0.061 0.001 0.134 0.002 0.206 0.002 7.465 0 13.517-6.052 13.517-13.517 0-0.062 0-0.124-0.001-0.187v0.009-222.793c0.001-0.070 0.002-0.152 0.002-0.235 0-7.602-6.13-13.773-13.717-13.838h-0.006c-7.603 0.196-13.692 6.407-13.692 14.039 0 0.012 0 0.024 0 0.035v-0.002zM615.746 245.189h-122.295c-0.219-0.013-0.474-0.020-0.732-0.020-7.352 0-13.312 5.96-13.312 13.312 0 0.028 0 0.055 0 0.083v-0.004c0.127 5.144 2.103 9.803 5.284 13.361l-0.018-0.020 127.912 156.028c4.213 5.266 8.075 8.426 15.448 8.426 0.131 0.004 0.285 0.007 0.439 0.007 7.918 0 14.336-6.418 14.336-14.336 0-0.023 0-0.046 0-0.069v0.004-153.571h27.765c6.566-0.065 11.871-5.371 11.937-11.931v-0.006c-0.241-6.273-5.385-11.267-11.695-11.267-0.085 0-0.17 0.001-0.255 0.003h-27.752v-46.811c-0.346-7.206-6.272-12.917-13.531-12.917s-13.186 5.711-13.53 12.886l-0.001 0.031zM615.746 268.39v126.947l-103.307-126.859z" />
<glyph unicode="&#xe902;" glyph-name="days-012" d="M314.953 930.743c-9.372 0-16.969-7.597-16.969-16.969v0-71.739h-182.623c-46.105-0.067-83.463-37.424-83.529-83.523v-709.697c0.033-46.124 37.407-83.508 83.524-83.558h637.81v1.024l5.676-1.024c4.526 0.118 8.592 1.997 11.556 4.973l221.77 221.77c2.587 2.849 4.17 6.649 4.17 10.82 0 0.424-0.016 0.844-0.049 1.26l0.003-0.055v5.237h0.848v549.244c-0.050 46.102-37.401 83.463-83.494 83.529h-138.158v71.739c0 9.372-7.597 16.969-16.969 16.969v0c0 0 0 0 0 0-9.378 0-16.982-7.594-16.998-16.968v-71.741h-409.6v71.739c0 9.372-7.597 16.969-16.969 16.969v0zM775.695 23.274v114.278c0.116 27.32 22.24 49.433 49.552 49.532h114.258zM963.525 221.052h-138.269c-46.089-0.067-83.433-37.411-83.5-83.493v-138.275h-626.191c-27.322 0.099-49.446 22.213-49.562 49.521v537.494h897.521zM332.156 714.24v93.828h409.6v-54.74h-5.208c-0.009 0-0.019 0-0.029 0-21.636 0-39.175-17.539-39.175-39.175s17.539-39.175 39.175-39.175c21.636 0 39.175 17.539 39.175 39.175 0 0.031 0 0.062 0 0.093v-0.005 93.828h138.269c27.332-0.099 49.462-22.23 49.562-49.552v-138.249h-897.521v138.24c0.099 27.332 22.23 49.462 49.552 49.562h182.632v-54.74h-5.208c-21.636 0-39.175-17.539-39.175-39.175s17.539-39.175 39.175-39.175c21.636 0 39.175 17.539 39.175 39.175 0 0.031 0 0.062 0 0.093v-0.005zM304.772 219.794c-2.588 2.524-4.28 5.956-4.561 9.78l-0.003 0.050c0.145 7.503 6.189 13.548 13.679 13.692h0.014c3.982-0.017 7.585-1.622 10.212-4.215l-0.002 0.002c17.905-20.48 39-31.276 66.765-31.276 29.872 0 53.745 18.988 53.745 47.806v0.702c0 30.574-28.467 47.426-68.871 47.426h-8.777c-0.044-0.001-0.096-0.001-0.148-0.001-6.634 0-12.025 5.32-12.14 11.927v0.011c0.34 4.401 2.442 8.252 5.593 10.893l0.025 0.020 71.68 81.159h-108.924c-0.096-0.003-0.209-0.004-0.323-0.004-6.904 0-12.512 5.548-12.609 12.429v0.009c0.147 7.012 5.866 12.64 12.9 12.64 0.042 0 0.084 0 0.126-0.001h134.138c7.724 0 13.341-4.915 13.341-11.937 0-5.647-2.926-9.509-6.671-13.722l-72.382-80.457c42.862-3.511 81.159-24.254 81.159-69.222v-0.702c0-43.886-36.542-74.167-82.213-74.167-37.595 0-66.063 15.126-85.753 37.157zM518.407 309.146v0.702c0 68.871 41.136 127.21 104.389 127.21s103.307-57.637 103.307-126.508v-0.702c0-68.871-40.784-127.21-104.009-127.21s-103.687 57.637-103.687 126.508zM697.285 309.146v0.702c0 53.775-29.52 101.903-75.191 101.903s-74.986-47.075-74.986-101.259v-0.702c0-53.745 29.52-101.903 75.571-101.903s74.606 47.514 74.606 101.259z" />
<glyph unicode="&#xe903;" glyph-name="additional-delivery-icon" d="M441.549 16.896c-160.887-6.298-296.414 119.040-302.694 279.927 0 0 0 0.017 0 0.034 0 3.977 0 8.090 0 12.066 1.434 87.962 25.941 174.029 71.066 249.566 61.986 110.131 134.298 214.118 215.962 310.579 10.24 12.698 16.384 14.643 27.853 0.819 46.217-55.979 90.249-113.527 132.096-172.646 8.926-10.052 9.37-25.071 1.041-35.635-35.14-54.323-58.692-115.285-69.239-179.098-17.169-121.702 67.294-234.377 188.928-252.006 24.866-2.97 21.504-12.407 15.155-28.86-44.356-115.115-156.911-189.321-280.166-184.747zM587.469 434.261c0.137 53.333 13.875 105.745 39.936 152.286 30.293 57.003 66.065 110.916 106.803 160.973 8.107 10.24 12.305 10.957 20.497 0 51.115-62.259 94.413-130.56 128.905-203.366 26.829-54.067 25.737-117.777-2.97-170.906-36.437-62.976-111.94-91.921-181.129-69.427-61.645 14.677-106.837 67.311-112.043 130.441z" />
<glyph unicode="&#xe904;" glyph-name="adult-01" d="M424.229 626.995c-0.052 0.001-0.114 0.001-0.176 0.001-7.802 0-14.136-6.284-14.218-14.066v-15.046c0.357-7.682 6.672-13.774 14.409-13.774s14.052 6.093 14.408 13.742l0.001 0.032v15.038c-0.098 7.794-6.439 14.074-14.247 14.074-0.062 0-0.124 0-0.186-0.001h0.009zM609.104 626.995c-0.061 0.001-0.133 0.001-0.206 0.001-7.808 0-14.149-6.28-14.247-14.065v-15.047c0.357-7.697 6.685-13.803 14.438-13.803s14.081 6.105 14.437 13.771l0.001 0.032v15.038c-0.115 7.797-6.462 14.074-14.276 14.074-0.062 0-0.124 0-0.186-0.001h0.009zM552.755 517.691c-5.266-5.061-17.876-10.971-36.103-10.971s-30.837 5.851-36.074 10.971c-2.636 2.586-6.252 4.182-10.24 4.182s-7.604-1.596-10.242-4.184l0.002 0.002c-2.559-2.513-4.145-6.010-4.145-9.877 0-3.939 1.645-7.493 4.286-10.013l0.005-0.005c12.405-11.966 33.47-19.105 56.32-19.105s43.886 7.139 56.349 19.105c2.603 2.519 4.218 6.045 4.218 9.947s-1.616 7.428-4.214 9.944l-0.004 0.004c-2.62 2.501-6.177 4.040-10.094 4.040s-7.474-1.539-10.099-4.046l0.006 0.005zM439.618 672.11h-30.837c-7.772 0-14.073-6.301-14.073-14.073s6.301-14.073 14.073-14.073h30.837c7.772 0 14.073 6.301 14.073 14.073s-6.301 14.073-14.073 14.073v0zM624.464 672.11h-30.808c-7.772 0-14.073-6.301-14.073-14.073s6.301-14.073 14.073-14.073h30.808c7.772 0 14.073 6.301 14.073 14.073s-6.301 14.073-14.073 14.073v0zM825.285 257.653l-103.863 31.188c0.037 0.574 0.058 1.245 0.058 1.921 0 2.588-0.309 5.104-0.892 7.512l0.044-0.217c-2.428 9.593-8.857 17.344-17.362 21.507l-0.193 0.085-64.366 31.334v44.705c47.908 32.416 81.352 83.104 90.374 141.842l0.147 1.167h8.543c28.116 0 52.224 20.48 54.857 46.373 0.167 1.552 0.263 3.352 0.263 5.174 0 13.444-5.197 25.675-13.691 34.793l0.028-0.031c-4.738 5.084-10.424 9.214-16.785 12.123l-0.331 0.136v155.97c0 57.49-47.952 104.272-106.847 104.272h-2.458c-25.922 18.812-64.044 30.31-106.35 30.31-90.024 0-131.394-18.315-179.259-39.497-24.661-11.879-54.352-23.349-85.018-32.569l-4.509-1.165c-3.971-1.14-7.168-3.84-8.944-7.378l-0.038-0.083c-0.884-1.767-1.401-3.85-1.401-6.054 0-1.957 0.408-3.818 1.143-5.504l-0.035 0.089c6.296-12.831 14.121-23.834 23.431-33.38l-0.026 0.026c-7.168-8.602-20.743-30.632-20.743-73.991v-91.546c-16.417-7.365-28.153-22.559-30.517-40.699l-0.028-0.261c-0.167-1.552-0.263-3.352-0.263-5.174 0-13.444 5.197-25.675 13.691-34.793l-0.028 0.031c9.823-10.572 23.802-17.167 39.32-17.174h10.768c9.103-59.902 42.503-110.606 89.642-142.569l0.733-0.469v-44.705l-64.366-31.334c-8.705-4.238-15.138-11.993-17.506-21.367l-0.048-0.225c-0.558-2.195-0.878-4.715-0.878-7.31 0-0.671 0.021-1.336 0.064-1.996l-0.005 0.090-103.717-31.159c-43.782-12.838-75.242-52.56-75.425-99.658v-176.559c0-7.966 6.458-14.424 14.424-14.424s14.424 6.458 14.424 14.424v0 176.538c0.161 34.421 23.158 63.427 54.612 72.656l0.538 0.135 108.017 32.417 19.076-24.81-21.65-21.153c-8.183-7.889-13.265-18.946-13.265-31.189 0-7.221 1.768-14.029 4.894-20.016l-0.114 0.239 41.253-80.516h-39.351v16.004c0 7.95-6.445 14.395-14.395 14.395s-14.395-6.445-14.395-14.395v0-16.004h-62.64c-0.052 0.001-0.114 0.001-0.176 0.001-7.802 0-14.136-6.284-14.218-14.066v-90.237c0.098-7.778 6.426-14.045 14.218-14.045 0.062 0 0.124 0 0.186 0.001h154.059c0.044 0 0.096-0.001 0.148-0.001 7.797 0 14.132 6.263 14.247 14.033v30.643l18.929-36.923c2.459-4.644 7.261-7.753 12.789-7.753 0.030 0 0.059 0 0.089 0h-0.005c0.018 0 0.039 0 0.060 0 2.32 0 4.514 0.54 6.462 1.501l-0.086-0.038c4.749 2.295 7.966 7.074 7.966 12.605 0 2.296-0.555 4.463-1.537 6.373l0.037-0.078-97.924 191.078c-1.086 2.077-1.723 4.537-1.723 7.146 0 4.444 1.849 8.457 4.819 11.31l0.005 0.005 30.486 29.784c2.61 2.511 4.231 6.034 4.231 9.935 0 3.193-1.086 6.132-2.909 8.469l0.023-0.031-32.651 42.511c-0.558 0.694-0.896 1.586-0.896 2.556 0 0.371 0.049 0.73 0.141 1.071l-0.007-0.029c0.3 1.303 1.164 2.359 2.315 2.915l0.026 0.011 56.759 27.707 40.082-134.115c1.963-5.919 7.449-10.114 13.914-10.114 1.411 0 2.774 0.2 4.065 0.572l-0.103-0.026c6.031 1.654 10.389 7.087 10.389 13.537 0 1.432-0.215 2.815-0.614 4.116l0.026-0.099-6.349 21.153c16.526-5.791 35.579-9.136 55.413-9.136s38.887 3.345 56.625 9.502l-1.212-0.366-55.384-185.373-30.983 103.921c-1.89 5.932-7.351 10.154-13.799 10.154-1.453 0-2.856-0.214-4.18-0.614l0.102 0.027c-6.031-1.654-10.389-7.087-10.389-13.537 0-1.432 0.215-2.815 0.614-4.116l-0.026 0.099 44.939-150.382c2.031-5.801 7.457-9.886 13.839-9.886s11.808 4.086 13.807 9.784l0.031 0.103 102.839 344.795 56.788-27.707c1.169-0.576 2.029-1.628 2.335-2.896l0.006-0.030c0.079-0.305 0.124-0.655 0.124-1.015 0-0.978-0.333-1.878-0.892-2.593l0.007 0.009-32.651-42.481c-1.807-2.309-2.898-5.254-2.898-8.454 0-3.893 1.615-7.409 4.211-9.915l0.004-0.004 30.544-29.784c2.906-2.849 4.707-6.815 4.707-11.202 0-2.654-0.659-5.153-1.823-7.344l0.041 0.085-97.894-191.108c-0.956-1.838-1.517-4.013-1.517-6.32 0-5.521 3.212-10.291 7.87-12.544l0.083-0.036c1.88-0.923 4.092-1.463 6.43-1.463 0.002 0 0.005 0 0.007 0v0c0.034 0 0.074 0 0.114 0 5.528 0 10.33 3.11 12.751 7.675l0.038 0.078 97.924 191.108c3.008 5.746 4.773 12.552 4.773 19.771 0 12.245-5.079 23.303-13.245 31.183l-0.013 0.012-21.68 21.153 19.076 24.81 108.076-32.417c31.979-9.376 54.964-38.378 55.12-72.774v-176.556c0-7.966 6.458-14.424 14.424-14.424s14.424 6.458 14.424 14.424v0 176.538c0.059 46.080-30.281 86.133-75.425 99.679zM363.579-4.491h-125.221v62.084h48.362v-0.965c0-7.95 6.445-14.395 14.395-14.395s14.395 6.445 14.395 14.395v0 0.965h48.216zM379.085 862.574c46.811 20.656 83.588 36.981 167.38 36.981 53.189 0 100.703-21.709 110.533-50.498 2.139-5.595 7.463-9.496 13.699-9.496 1.619 0 3.176 0.263 4.632 0.749l-0.103-0.030c5.751 1.844 9.841 7.144 9.841 13.4 0 1.58-0.261 3.099-0.742 4.517l0.029-0.099c-0.965 2.853-1.954 5.212-3.083 7.49l0.157-0.351c30.294-10.511 51.683-38.738 51.844-71.982v-151.337h-16.472c-0.061-0.001-0.134-0.001-0.206-0.001-8.88 0-16.092 7.141-16.207 15.994v15.166c0 65.214-48.391 113.167-50.439 115.185-2.634 2.574-6.242 4.162-10.22 4.162-1.575 0-3.091-0.249-4.512-0.709l0.104 0.029c-80.018-24.664-192.834-45.466-275.866-4.447-22.56 10.901-41.381 26.303-55.937 45.165l-0.266 0.359c30.822 10.145 55.911 20.219 80.258 31.614l-4.423-1.86zM610.216 344.313l-27.531-92.131c-19.13-10.138-41.821-16.090-65.902-16.090s-46.771 5.952-66.681 16.465l0.779-0.375-27.531 92.131v34.904c27.36-13.204 59.495-20.92 93.433-20.92s66.073 7.716 94.748 21.489l-1.315-0.569zM516.623 386.56c-102.4 0-185.841 81.364-185.841 181.394-0.357 7.682-6.672 13.774-14.409 13.774s-14.052-6.093-14.408-13.742l-0.001-0.032v-0.965h-8.777c-0.007 0-0.014 0-0.022 0-7.024 0-13.356 2.965-17.813 7.711l-0.012 0.013c-3.857 4.094-6.227 9.627-6.227 15.713 0 0.896 0.051 1.78 0.151 2.65l-0.010-0.106c1.2 11.703 12.668 21.036 26.156 21.036h20.919c0.14-0.002 0.306-0.002 0.472-0.002 24.501 0 44.402 19.697 44.73 44.121v53.016c-0.357 7.682-6.672 13.774-14.409 13.774s-14.052-6.093-14.408-13.742l-0.001-0.032v-53.102c-0.115-8.864-7.327-16.005-16.207-16.005-0.062 0-0.124 0-0.186 0.001h-16.404v86.162c0 32.739 9.011 49.006 13.166 54.799 9.085-7.033 19.32-13.564 30.128-19.137l1.118-0.524c32.651-16.618 71.504-25.805 115.536-27.355 51.58-1.814 110.533 7.022 175.309 26.331 11.469-13.517 36.425-47.777 36.425-89.117v-15.038c0.28-24.508 20.213-44.268 44.761-44.268 0.155 0 0.31 0.001 0.465 0.002h23.060c0.019 0 0.041 0 0.064 0 7.020 0 13.348-2.965 17.8-7.711l0.012-0.013c3.868-4.13 6.243-9.699 6.243-15.822 0-0.857-0.047-1.704-0.137-2.537l0.009 0.103c-1.229-11.703-12.727-21.036-26.331-21.036h-6.115v0.819c0 7.966-6.458 14.424-14.424 14.424s-14.424-6.458-14.424-14.424v0c-0.176-99.942-83.558-181.131-185.958-181.131z" />
<glyph unicode="&#xe905;" glyph-name="build-your-order-01" d="M954.046 206.336c0.848 4.944 4.301 26.683 5.237 32.651v0.848c1.379 8.47 2.186 18.257 2.223 28.225v3.197l-2.048 3.277 0.38 89.819 1.141 1.551 0.468 30.779v3.189h-0.293c-1.496 6.336-4.064 11.906-7.531 16.795l0.1-0.148c-9.772 29.608-33.968 61.235-34.845 62.376l-0.761 1.112 7.022 1.609-2.311 11.527c-0.257 2.057-1.076 3.886-2.297 5.372l0.015-0.018 0.38 24.049v1.317c-1.872 11.703-15.711 16.501-43.388 14.921-12.522 0-21.387-1.024-27.297-3.569l0.556 44.471c3.883 4.457 7.049 9.665 9.242 15.356l0.12 0.355c2.235 3.489 3.563 7.746 3.563 12.313 0 0.547-0.019 1.090-0.057 1.627l0.004-0.072-0.731 29.257-1.638 3.452c-1.689 8.241-5.336 15.445-10.437 21.36l0.051-0.060 0.761 1.17-3.54 2.282c-9.743 24.108-44.325 38.736-44.383 38.736-3.101 1.609-9.216 4.359-16.94 7.841s-16.179 7.285-24.752 11.352c-63.078 27.619-74.518 36.396-75.103 36.835l-0.965 0.731c-14.921 9.977-14.629 30.164-14.629 31.159l-0.38 34.436c1.632 2.489 2.691 5.489 2.922 8.718l0.003 0.059 0.322 19.924c1.34 2.118 2.136 4.696 2.136 7.461v0l0.614 15.799c0.938 2.236 1.484 4.835 1.484 7.561 0 0.986-0.071 1.956-0.209 2.904l0.013-0.108 0.614 9.596v0.848c-0.457 5.876-2.866 11.115-6.57 15.144l0.016-0.018c-1.195 1.264-2.539 2.367-4.011 3.286l-0.085 0.050c-13.195 9.275-49.445 11.176-60.299 11.527-2.206 0.050-4.806 0.078-7.413 0.078-16.909 0-33.538-1.198-49.807-3.515l1.866 0.218c-18.344-2.926-28.584-8.075-33.207-16.56-1.843-3.285-2.928-7.21-2.928-11.388 0-0.111 0.001-0.221 0.002-0.332v0.017l0.38-8.777c-0.217-1.060-0.341-2.278-0.341-3.526 0-2.865 0.655-5.577 1.822-7.994l-0.048 0.11 0.205-14.307c0.054-2.245 0.599-4.351 1.531-6.231l-0.039 0.087 0.176-19.339c-0.051-0.51-0.080-1.103-0.080-1.702 0-3.724 1.122-7.186 3.047-10.066l-0.041 0.066-0.205-26.946c0-27.648-11.703-35.752-11.703-35.752v0l-1.902-0.995-1.112-1.492c-3.248-3.482-37.625-20.773-81.715-39.965-18.908-7.794-34.943-16.128-50.142-25.671l1.37 0.803v7.958c1.348 2.231 2.232 4.883 2.454 7.721l0.004 0.062 0.263 16.618c1.144 1.947 1.826 4.286 1.843 6.783v0.005l0.497 13.283c0.826 2.011 1.306 4.346 1.306 6.792 0 0.865-0.060 1.716-0.176 2.549l0.011-0.096 0.497 8.133v0.878c-0.38 5.33-2.534 10.095-5.868 13.77l0.017-0.019c-1.086 1.229-2.296 2.308-3.621 3.233l-0.066 0.044c-11.703 8.192-43.067 9.86-52.458 10.152-1.515 0.027-3.302 0.042-5.093 0.042-15.015 0-29.778-1.079-44.215-3.163l1.648 0.195c-16.208-2.604-25.307-7.227-29.52-14.95-1.66-3.024-2.636-6.627-2.636-10.457 0-0.129 0.001-0.258 0.003-0.387v0.019l0.293-7.051c-0.178-0.932-0.279-2.004-0.279-3.1 0-2.587 0.566-5.042 1.582-7.248l-0.044 0.108v-11.908c0.090-2.038 0.598-3.937 1.441-5.641l-0.037 0.082v-16.121c-0.059-0.526-0.093-1.135-0.093-1.752 0-3.291 0.962-6.357 2.619-8.933l-0.039 0.065-0.176-22.616c0-21.328-8.221-28.496-9.333-29.257l-1.609-0.79-1.2-1.58c-3.599-3.277-32.622-17.788-69.369-33.792-50.79-21.416-65.039-39.117-68.901-46.168-11.235-12.99-13.839-32.358-13.926-33.090-3.774-25.512 4.155-38.356 10.24-44.237l-0.088-152.781c-2.926-4.535-5.998-10.533-6.934-12.347l-1.141-2.253v-39.643l0.263-2.341c1.846-6.85 5.082-12.789 9.408-17.754l-0.045 0.053 0.351-127.561-0.497-24.43-0.293-5.851c-3.335-8.163-6.085-17.32-6.261-17.964l-0.234-1.112c-11.703-72.88 59.246-97.807 60.153-98.128 47.601-13.751 103.248-20.743 165.391-20.743 0.705-0.002 1.538-0.004 2.372-0.004 39.635 0 78.587 2.926 116.651 8.574l-4.306-0.525c9.772 1.188 18.352 2.81 26.732 4.935l-1.454-0.312c41.888-8.068 90.063-12.684 139.317-12.684 1.751 0 3.5 0.006 5.248 0.017l-0.268-0.001c1.279-0.006 2.792-0.010 4.305-0.010 45.692 0 90.6 3.354 134.493 9.829l-4.976-0.603c29.55 3.628 54.565 11.469 74.459 23.406 4.272-9.509 11.878-19.807 25.337-23.406 12.361-5.462 26.73-8.884 41.831-9.444l0.212-0.006c0.075 0 0.163-0.001 0.251-0.001 2.686 0 5.331 0.17 7.927 0.501l-0.308-0.032c20.919-1.989 43.271 7.022 48.333 9.187 26.331 7.197 30.281 39.965 30.427 41.37v0.702l-0.819 57.637v0.761c-1.141 10.65-7.607 45.29-7.724 45.875l-0.234 0.936c-0.662 6.344-1.039 13.708-1.039 21.159 0 4.053 0.112 8.079 0.332 12.077l-0.024-0.556zM822.711 46.036c15.891-7.864 34.6-12.465 54.384-12.465 0.218 0 0.435 0.001 0.653 0.002h-0.033c22.284 0.212 43.375 5.093 62.416 13.707l-0.976-0.395 0.351-23.406c-0.556-3.218-3.92-20.158-15.331-22.938l-1.872-0.644c-0.878-0.41-22.118-9.801-39.292-7.695l-1.434 0.176-1.434-0.205c-17.554-2.662-40.082 7.402-40.697 7.665l-1.492 0.497c-11.469 2.926-14.775 19.719-15.301 22.908zM656.443 886.682v-0.263l-0.176-0.439-2.633 2.604-0.146-9.245c-2.779 0.614-5.851 1.17-9.070 1.638-14.124 1.626-30.49 2.554-47.074 2.554-0.937 0-1.872-0.003-2.807-0.009l0.144 0.001c-24.196-0.176-42.54-1.785-54.711-4.769l-0.205 6.173-1.229 1.843v0.322l-0.527 12.112c0.019 0.396 0.114 0.766 0.271 1.1l-0.008-0.018c0.146 0.205 2.779 3.335 17.905 5.851 13.333 1.911 28.73 3.002 44.383 3.002 2.49 0 4.973-0.028 7.449-0.083l-0.369 0.006c19.251-0.644 43.388-3.891 48.83-7.782v0c0.337-0.516 0.566-1.132 0.642-1.795l0.002-0.019-0.702-12.61zM544.183 800.402l0.263 37.010-2.926 1.814-0.263 18.022c7.812 2.458 29.257 4.886 53.424 5.061 0.64 0.004 1.397 0.006 2.155 0.006 15.73 0 31.259-0.863 46.542-2.544l-1.886 0.168c4.33-0.525 8.232-1.388 11.985-2.584l-0.458 0.126-0.322-18.637-2.926-2.926 0.527-42.306c0-1.317-0.936-32.183 23.406-48.713 3.218-2.545 18.461-12.932 79.901-39.614 8.192-3.891 17.028-7.87 24.81-11.381 7.022-3.16 13.078-5.851 16.179-7.461 4.355-2.006 7.952-3.958 11.414-6.107l-0.443 0.256c-59.275 11.264-152.547 12.229-182.711 12.229h-5.53c-102.576 0-179.61-4.008-225.28-11.703 12.058 7.393 26.186 14.618 40.871 20.778l2.108 0.784c28.496 12.405 77.619 34.582 88.298 44.471 5.179 3.891 20.86 18.139 20.86 53.248zM933.127 209.408l-3.335-48.391c-0.234-7.139-0.761-31.071 1.404-39.029 1.053-5.676 6.32-34.319 7.314-43.067v-8.777c-12.2-6.671-64.015-31.364-115.536-0.263v8.426c0.995 9.157 6.29 37.829 7.256 43.125 2.253 8.397 1.697 32.475 1.463 39.79l-3.189 47.045v0.936c-0.263 1.463-1.404 8.368-5.296 32.768l-0.497 2.721c-0.477 2.666-0.822 5.838-0.96 9.065l-0.005 0.151c16.567-8.667 36.187-13.752 56.996-13.752 0.184 0 0.368 0 0.552 0.001h-0.028c21.9 0.233 42.634 4.969 61.403 13.324l-0.987-0.392c-0.138-3.018-0.463-5.845-0.966-8.61l0.059 0.389-0.497-2.662c-3.833-24.342-4.974-31.188-5.208-32.709zM823.179 277.577l-0.293 73.406c16.318-8.339 35.594-13.225 56.011-13.225 0.17 0 0.341 0 0.511 0.001h-0.026c21.52 0.244 41.91 4.816 60.426 12.883l-1.004-0.39-0.293-74.079v-0.351c-14.365-7.431-65.185-29.696-115.39 1.843zM343.128 127.693c-3.657-9.245-6.495-18.783-6.583-19.134l-0.263-1.083c-0.916-5.271-1.44-11.34-1.44-17.532 0-3.965 0.215-7.88 0.633-11.734l-0.042 0.477c-10.65-0.848-21.241-1.463-31.685-1.814-66.589-5.442-175.865-2.048-187.86 29.872l0.322 7.080 0.38 24.927-0.351 124.431c18.109-2.199 39.077-3.453 60.338-3.453 0.387 0 0.775 0 1.162 0.001h-0.060c0.214 0 0.468 0 0.723 0 36.163 0 71.515 3.471 105.742 10.099l-3.479-0.561c2.926 0.673 29.257 6.641 63.693 11.703l0.322-115.39-0.439-28.555-0.263-5.851-1.317-0.234zM829.323 459.703c-8.058-12.131-15.22-26.043-20.788-40.738l-0.482-1.45c-89.615 24.488-243.595-5.032-250.178-6.32-34.427-6.653-74.019-10.459-114.501-10.459-28.1 0-55.771 1.834-82.901 5.389l3.193-0.342 0.41 172.617c8.777 4.535 53.336 20.187 253.308 20.187h3.16c54.272 0.439 166.327-2.926 209.159-17.905l-0.614-48.421zM354.245 378.661c0.761 1.492 2.107 4.037 3.569 6.524 25.751-3.61 55.5-5.672 85.73-5.672 41.84 0 82.758 3.949 122.401 11.493l-4.062-0.643c1.551 0.293 153.395 29.257 238.065 7.548l0.468-32.183 1.141-1.551v-9.86c-89.176 22.821-240.757-12.551-247.106-14.043-34.329-6.707-73.804-10.545-114.175-10.545-29.784 0-59.080 2.089-87.75 6.128l3.299-0.381c-0.61 1.080-1.165 2.339-1.596 3.653l-0.043 0.15zM342.543 400.72c-3.423-5.208-7.168-12.464-8.309-14.629l-1.141-2.224v-24.869c-30.076-3.599-51.493-7.724-53.892-8.192-29.414-5.666-63.243-8.908-97.829-8.908-23.474 0-46.599 1.493-69.286 4.39l2.69-0.28 0.351 145.671c8.777 4.359 48.157 16.589 215.157 16.589h12.522zM365.129 127.634l0.41 8.514 0.439 29.111-0.41 147.485c21.869-2.683 47.187-4.214 72.862-4.214 0.459 0 0.917 0 1.376 0.001h-0.071c0.243 0 0.53-0.001 0.817-0.001 41.818 0 82.703 3.993 122.295 11.619l-4.035-0.647c1.609 0.38 161.236 37.42 242.834 12.961l0.263-56.408v-1.726l-2.077-3.277v-3.189c0.034-9.868 0.82-19.525 2.303-28.95l-0.138 1.068 0.176-1.258c0.965-6.085 4.418-27.677 5.237-32.592l3.131-45.846c0.168-3.48 0.264-7.559 0.264-11.659 0-7.224-0.298-14.378-0.882-21.451l0.062 0.927c-43.886-12.727-129.053-33.675-223.642-36.864-78.438-6.466-207.492-2.136-221.301 36.425zM283.209 329.889c0.907 0.176 21.328 4.037 49.942 7.578l0.234-1.931c2.159-7.939 5.952-14.813 11.018-20.533l-0.046 0.053v-12.844c-38.034-5.266-66.999-12.083-68.081-12.347-29.307-5.723-63.008-8.998-97.474-8.998-25.117 0-49.827 1.739-74.018 5.103l2.796-0.318c-0.301 0.579-0.608 1.284-0.868 2.011l-0.039 0.125v33.236c0.702 1.346 1.521 2.926 2.341 4.272 21.804-3.056 46.993-4.8 72.59-4.8 35.888 0 70.975 3.429 104.951 9.978l-3.462-0.555zM940.208 374.331c-12.317-6.788-65.887-32.417-118.608 1.96l-0.234 13.722c16.706-8.831 36.515-14.015 57.535-14.015 0.19 0 0.38 0 0.569 0.001h-0.029c22.122 0.234 43.058 5.058 61.983 13.56l-0.982-0.394zM864.461 473.805l0.527 1.726v3.072c5.167-0.494 11.171-0.776 17.241-0.776 5.207 0 10.366 0.207 15.468 0.614l-0.673-0.043v-2.692l0.527-1.697c1.169-3.514 3.191-6.48 5.826-8.756l0.025-0.021c4.506-6.056 23.406-32.183 30.983-55.589-17.291-8.104-61.44-23.786-105.911 1.053 7.782 23.055 26.127 48.45 30.544 54.418 2.432 2.3 4.273 5.199 5.287 8.462l0.037 0.139zM900.067 504.759l-0.176-0.936-18.461-4.74h-1.697l-17.818 4.447-0.146 13.195c3.936 0.67 8.469 1.053 13.092 1.053 1.086 0 2.166-0.021 3.242-0.063l-0.155 0.005h0.556c2.089 0.149 4.526 0.234 6.983 0.234 5.143 0 10.199-0.372 15.142-1.091l-0.563 0.067zM842.606 608.241l-1.258-3.101c-0.673-1.668-1.463-3.482-2.341-5.179-55.589 20.48-201.699 20.1-218.463 19.983h-3.218c-99.474 0-223.963-3.891-261.705-22.206-2.721 3.657-6.407 12.171-3.686 30.398 1.304 8.318 3.958 15.793 7.751 22.542l-0.173-0.336c0.936 0.878 25.98 21.358 257.638 21.358h0.176c60.445 0.41 182.594-3.482 216.737-21.211 3.189-3.387 5.471-7.663 6.438-12.416l0.028-0.165 0.176-1.755 1.141-2.458 0.761-24.781c0 0 0-0.38 0-0.673zM362.35 758.828l-2.575 2.545-0.176-9.626c-1.902 0.41-3.92 0.731-6.056 1.024-11.968 1.423-25.83 2.235-39.881 2.235-1.007 0-2.012-0.004-3.017-0.012l0.154 0.001c-1.138 0.020-2.48 0.031-3.825 0.031-14.657 0-28.998-1.353-42.905-3.94l1.44 0.223-0.205 3.891-0.878 1.317-0.41 10.386c0.79 0.614 4.037 2.604 14.16 4.242 11.737 1.645 25.295 2.584 39.073 2.584 1.692 0 3.381-0.014 5.066-0.042l-0.254 0.003c17.554-0.585 35.957-3.423 40.726-6.261 0.015-0.084 0.024-0.18 0.024-0.278s-0.009-0.194-0.025-0.288l0.001 0.010zM269.166 682.32l0.234 32.534-2.545 1.551v13.4c12.583 2.539 27.047 3.992 41.85 3.992 0.829 0 1.657-0.005 2.484-0.014l-0.126 0.001c0.533 0.003 1.163 0.004 1.794 0.004 13.395 0 26.618-0.735 39.631-2.167l-1.606 0.143c3.272-0.427 6.155-1.021 8.961-1.803l-0.447 0.106-0.234-14.19-2.604-2.458 0.41-32.183c-3.896-3.533-7.21-7.612-9.847-12.134l-0.13-0.242c-12.844-14.629-15.857-37.010-15.945-37.859-2.75-18.461 0-30.983 3.774-39.234h-4.681c-83.354 0-145.32-2.926-184.817-8.777 7.863 4.483 17.537 9.246 27.488 13.483l1.945 0.736c29.725 12.932 66.882 30.018 75.922 38.268 4.652 3.54 18.491 16.238 18.491 46.841zM330.372 570.587h12.522v-41.194h-12.551c-121.154 0-196.228-6.29-223.378-18.666-1.96 3.277-4.242 10.211-2.224 23.874v0c1.067 6.774 3.228 12.859 6.315 18.355l-0.142-0.274c0.819 0.79 21.504 17.788 216.766 17.788zM108.632 82.286c28.087-23.552 90.697-28.701 139.995-28.701 27.941 0 50.352 1.668 56.32 2.165 11.381 0.38 23.23 1.083 35.109 2.107 13.605-38.034 48.684-56.027 60.884-61.294-46.636-5.061-152.517-11.966-246.345 15.126-3.189 1.141-51.697 19.456-45.963 70.597zM357.025 102.766c30.837-28.935 105.501-35.109 164.513-35.109 32.914 0 59.129 1.96 66.18 2.545 90.463 2.926 173.202 22.294 218.112 34.787-1.609-9.392-3.306-19.544-3.833-24.839l-0.79-54.682c-18.081-12.434-42.364-20.48-72.177-24.254h-0.146c-1.726-0.263-172.822-27.677-317.147 14.014-2.633 0.731-64.219 22.85-54.799 87.537z" />
<glyph unicode="&#xe906;" glyph-name="cancelled-order-icon" d="M513.229 896.717c-246.016 0-445.44-199.441-445.44-445.44s199.424-445.44 445.44-445.44 445.44 199.441 445.44 445.44c0 0.034 0 0.068 0 0.102v0c0.631 245.333-197.751 444.706-443.085 445.338-0.137 0-0.273 0-0.41 0h-1.946zM512 85.606c-200.533 1.126-362.189 164.625-361.062 365.158 1.143 200.533 164.625 362.189 365.158 361.045 200.533-1.126 362.189-164.625 361.045-365.158-1.109-198.929-162.116-359.936-361.045-361.062h-4.096zM357.478 629.453c12.698-0.256 24.678-5.973 32.87-15.667 33.587-33.792 68.096-66.56 100.454-101.274 15.155-16.384 24.474-18.227 40.96-0.819 32.256 35.021 66.765 67.789 100.762 101.069 23.757 23.347 40.943 23.859 61.44 2.867 18.534-19.354 17.493-36.659-4.915-59.187-33.69-33.075-65.434-67.482-100.25-98.202-20.48-18.022-16.060-28.382 1.041-44.339 34.099-31.846 66.543-65.434 99.209-98.714 21.504-21.914 22.118-40.943 3.482-59.375s-37.359-19.046-59.392 2.56c-35.84 35.004-71.663 70.537-106.496 106.803-11.759 12.288-18.842 12.066-30.703 0-34.099-35.635-69.427-70.042-104.55-105.165-22.63-22.426-40.96-22.835-61.44-2.167-20.48 20.702-18.022 35.328 5.222 58.778 33.997 34.509 67.789 69.342 103.014 102.4 14.336 13.517 13.107 21.402-0.614 34.406-36.557 34.611-71.68 70.656-107.11 106.394-13.193 9.626-17.51 27.375-10.24 41.984 6.963 14.899 20.975 25.276 37.257 27.648z" />
<glyph unicode="&#xe907;" glyph-name="cash-on-delivery-01" d="M969.026 377.783h-82.534c-10.613-0.010-19.429-7.696-21.193-17.806l-0.019-0.129h-29.842c-10.611-0.119-19.39-7.812-21.192-17.92l-0.019-0.132-33.061 0.38c-31.832 1.375-41.223 11.059-52.078 22.265-5.508 6.121-11.738 11.429-18.597 15.844l-0.361 0.218c-4.065 2.865-8.844 5.868-13.775 8.63l-0.853 0.439v379.845c0 0.053 0 0.115 0 0.177 0 30.557-24.655 55.355-55.157 55.587h-551.782c-30.524-0.232-55.179-25.030-55.179-55.587 0-0.062 0-0.124 0-0.187v0.010-557.934c0 0 0-0.001 0-0.002 0-30.557 24.655-55.355 55.157-55.587h27.904v-61.44c0-0.044 0-0.095 0-0.147 0-14.669 11.85-26.57 26.499-26.653h445.126c7.419 0.014 14.115 3.093 18.893 8.038l0.007 0.008h32.534c23.406 0 39.526 5.471 55.12 10.767 14.98 5.091 29.111 9.889 50.322 9.889h69.164c1.147-10.95 10.297-19.42 21.439-19.485h29.527v-0.673c0-0.026 0-0.057 0-0.088 0-11.922 9.623-21.596 21.526-21.679h82.484c11.923 0.066 21.563 9.747 21.563 21.679 0 0.031 0 0.062 0 0.093v-0.005 279.962c-0.017 11.934-9.687 21.604-21.619 21.621h-0.002zM965.866 79.36l-76.069-0.176v273.613l75.747 0.176zM865.017 334.746v-233.004h-26.156v233.092zM317.616 563.888v236.164h42.247v-236.076zM384.644 563.888v236.164h44.676v-236.076zM589.59 154.288v-60.006c-0.011-0.26-0.086-0.501-0.209-0.709l0.004 0.007v-0.205c-0.275-0.425-0.746-0.702-1.282-0.702-0.002 0-0.004 0-0.006 0v0h-59.421c5.193 31.494 29.528 56.076 60.463 61.578l0.45 0.066zM614.4 297.443c11.147-31.803 36.454-79.492 87.771-79.492 6.682 0.332 11.974 5.831 11.974 12.566s-5.292 12.233-11.944 12.565l-0.030 0.001c-15.214 0-52.487 7.929-69.778 81.218-2.496 10.602-11.875 18.374-23.069 18.374-0.016 0-0.031 0-0.047 0h-85.37c-1.95 0.263-3.716 0.765-5.366 1.484l0.129-0.050c-7.547 3.291-12.732 10.677-12.756 19.277v1.29c0.211 4.259 1.648 8.145 3.963 11.356l-0.043-0.063c0.351 0.527 0.761 0.995 1.141 1.463l-2.399 2.077 2.575-1.902c0.416 0.482 0.836 0.921 1.278 1.338l0.009 0.008 0.176 0.176c0.351 0.322 0.731 0.673 1.112 0.965l0.468 0.351c0.351 0.293 0.731 0.556 1.112 0.819l0.585 0.351 1.083 0.644 0.907 0.439 0.878 0.41 0.497 0.176 0.644 0.234c0.2 0.092 0.443 0.182 0.693 0.254l0.038 0.009 0.585 0.146 0.731 0.205 0.614 0.146h2.048c0.614 0 1.258 0 2.077 0h89.381c2.253 0 4.652 0 7.314-0.205h1.229c19.458-1.279 37.46-6.314 53.687-14.383l-0.82 0.369 0.351-0.146c7.071-3.544 13.067-7.171 18.752-11.208l-0.437 0.295 0.907-0.556c5.373-3.51 10.007-7.531 14.038-12.097l0.064-0.074c12.727-13.136 27.151-28.028 69.135-29.813l33.616-0.263v-195.408h-69.018c-25.278 0-42.043-5.705-58.28-11.205-14.307-4.857-27.824-9.45-47.163-9.45h-25.044zM305.152 538.697h136.631c6.891 0.033 12.464 5.627 12.464 12.522 0 0.010 0 0.021 0 0.031v-0.002 248.686h186.017c16.736-0.132 30.252-13.73 30.252-30.485 0-0.052 0-0.103 0-0.155v0.008-368.64c-11.463 4.179-24.784 7.211-38.607 8.522l-0.656 0.050-0.263-3.16v3.189c-2.224 0.205-4.447 0.351-6.671 0.468h-0.907c-2.633 0-5.003 0.176-7.227 0.176h-89.936c-1.287 0-2.575 0-3.833-0.205l-1.112-0.146h-0.41c-0.907 0-1.843-0.234-2.721-0.41l-1.609-0.351c-0.878-0.205-1.726-0.41-2.575-0.673l-1.521-0.468c-0.907-0.293-1.814-0.644-2.692-0.995l-0.351-0.146-0.819-0.322c-2.801-1.231-5.193-2.571-7.44-4.108l0.155 0.1-0.585-0.41-0.234-0.205c-0.946-0.643-1.756-1.258-2.534-1.911l0.047 0.039c-0.322-0.234-0.614-0.497-1.053-0.878s-1.346-1.229-2.019-1.843l-1.053-1.083c-0.614-0.644-1.2-1.287-1.755-1.96l-0.263-0.293c-0.257-0.275-0.506-0.571-0.74-0.879l-0.020-0.028c-0.556-0.673-1.053-1.404-1.58-2.107s-0.995-1.463-1.551-2.341-0.878-1.404-1.287-2.136-0.673-1.346-0.995-2.019l-0.322-0.673-0.439-0.878c-0.38-0.878-0.702-1.755-1.083-2.75l-0.351-0.936c0-0.293-0.176-0.585-0.293-0.878h-340.261c-14.627-0.083-26.457-11.934-26.507-26.561v-170.574h-27.882c-16.733 0.116-30.252 13.707-30.252 30.456 0 0.062 0 0.124 0.001 0.186v-0.010 557.904c0 0.052-0.001 0.114-0.001 0.176 0 16.749 13.52 30.34 30.241 30.456h204.021v-248.686c-0.001-0.044-0.001-0.095-0.001-0.146 0-6.916 5.606-12.522 12.522-12.522 0.021 0 0.042 0 0.063 0h-0.003zM141.312 291.182v60.27c0 0.009 0 0.019 0 0.030 0 0.879 0.704 1.593 1.579 1.609h59.365c-5.143-31.535-29.479-56.168-60.433-61.695l-0.451-0.067zM141.312 265.787c45.155 6.18 80.403 41.756 86.024 86.549l0.050 0.491h254.8c0.176-0.761 0.38-1.521 0.585-2.282s0.322-0.995 0.468-1.492 0.614-1.755 0.965-2.604 0.38-0.965 0.585-1.463 0.79-1.668 1.2-2.487v-0.234c0.205-0.38 0.38-0.761 0.585-1.112 0.468-0.848 0.965-1.668 1.492-2.487l0.234-0.351c0-0.263 0.322-0.527 0.497-0.79 0.614-0.907 1.258-1.755 1.931-2.604l0.176-0.234 0.41-0.527c1.798-2.214 3.714-4.186 5.791-5.976l0.060-0.051 0.644-0.497 0.263-0.205c0.79-0.644 1.609-1.258 2.428-1.843l1.229-0.819 2.341-1.434 1.434-0.761c0.761-0.41 1.551-0.79 2.37-1.17l1.521-0.644 2.487-0.936 1.551-0.497c14.745-28.817 42.471-49.171 75.251-53.429l0.496-0.053v-86.133c-45.155-6.18-80.403-41.756-86.024-86.549l-0.050-0.491h-275.661c-5.671 45.284-40.919 80.86-85.554 86.982l-0.52 0.058zM141.371 154.317c31.377-5.571 55.703-30.154 60.825-61.212l0.059-0.433h-59.304c-0.876 0.016-1.58 0.73-1.58 1.609 0 0.010 0 0.021 0 0.031v-0.002zM589.59 317.425v-26.068c-18.18 3.226-33.734 12.677-44.719 26.028l-0.102 0.128zM505.271 210.256h21.621c6.682 0.332 11.974 5.831 11.974 12.566s-5.292 12.233-11.944 12.565l-0.030 0.001h-21.621c-6.682-0.332-11.974-5.831-11.974-12.566s5.292-12.233 11.944-12.565l0.030-0.001zM365.48 113.649c0.348-0.004 0.759-0.006 1.17-0.006 60.303 0 109.188 48.885 109.188 109.188s-48.885 109.188-109.188 109.188c-60.303 0-109.188-48.885-109.188-109.188 0-0.039 0-0.078 0-0.117v0.006c0-0.096 0-0.21 0-0.324 0-59.803 48.273-108.332 107.978-108.746h0.040zM282.39 222.72c0.529 45.485 37.525 82.154 83.085 82.154 45.889 0 83.090-37.201 83.090-83.090s-37.198-83.087-83.085-83.090v0c-45.961 0.331-83.091 37.666-83.091 83.673 0 0.124 0 0.248 0.001 0.372v-0.019zM225.66 210.256c6.682 0.332 11.974 5.831 11.974 12.566s-5.292 12.233-11.944 12.565l-0.030 0.001h-21.621c-6.682-0.332-11.974-5.831-11.974-12.566s5.292-12.233 11.944-12.565l0.030-0.001z" />
<glyph unicode="&#xe908;" glyph-name="create-your-account-01" d="M316.504 502.389c-1.005 0.25-2.158 0.394-3.345 0.394-3.010 0-5.804-0.924-8.114-2.503l0.049 0.032c-4.123-2.739-6.804-7.364-6.804-12.615 0-2.909 0.823-5.625 2.248-7.93l-0.037 0.065c14.073-22.384 38.637-37.042 66.625-37.042 0.234 0 0.468 0.001 0.702 0.003h-0.036c28.17 0.238 52.899 14.749 67.336 36.646l0.189 0.305v0.205c1.338 2.258 2.129 4.978 2.129 7.882 0 1.157-0.125 2.284-0.363 3.369l0.019-0.104c-0.851 4.035-3.325 7.372-6.692 9.355l-0.066 0.036c-2.239 1.345-4.941 2.14-7.829 2.14-1.165 0-2.3-0.13-3.392-0.375l0.103 0.019c-3.998-0.828-7.312-3.26-9.297-6.577l-0.036-0.064c-4.048-6.326-9.278-11.538-15.421-15.444l-0.203-0.12c-7.508-4.818-16.67-7.68-26.501-7.68-17.691 0-33.216 9.269-41.986 23.215l-0.121 0.206c-2.108 3.216-5.301 5.571-9.049 6.559l-0.108 0.024zM329.64 563.771c0-12.264-9.942-22.206-22.206-22.206s-22.206 9.942-22.206 22.206c0 12.264 9.942 22.206 22.206 22.206s22.206-9.942 22.206-22.206zM453.193 563.771c0-12.264-9.942-22.206-22.206-22.206s-22.206 9.942-22.206 22.206c0 12.264 9.942 22.206 22.206 22.206s22.206-9.942 22.206-22.206zM992.461 806.020c0 0.001 0 0.003 0 0.005 0 67.606-54.806 122.412-122.412 122.412-51.915 0-96.282-32.317-114.080-77.932l-0.286-0.833h-255.152c-18.581-0.017-33.642-15.067-33.675-33.642v-4.245c-9.54-1.193-18.214-3.599-26.312-7.085l0.625 0.239c-17.46 21.459-43.854 35.068-73.429 35.109h-40.967c-88.187-0.248-159.626-71.604-160.007-159.737v-57.937c-13.677-13.337-22.16-31.944-22.16-52.533 0-39.34 30.972-71.447 69.862-73.266l0.164-0.006c7.434-44.51 32.939-81.944 68.565-105.136l0.599-0.366v-12.025c0.006-0.214 0.009-0.467 0.009-0.72 0-1.231-0.078-2.445-0.228-3.635l0.015 0.142c-1.41-10.139-7.76-18.533-16.5-22.772l-0.177-0.077-23.64-11.703h-0.439l-1.375-0.878-7.402-3.657c-6.372-3.073-13.894-5.852-21.703-7.927l-0.913-0.206-103.629-25.893c-31.156-7.764-54.173-34.697-55.932-67.282l-0.008-0.185-17.379-220.804v-2.926c0.033-22.043 17.893-39.903 39.933-39.936h589.71c20.589 1.742 36.64 18.883 36.64 39.773 0 1.118-0.046 2.225-0.136 3.32l0.010-0.144-13.517 170.803h222.149c18.494 0.122 33.504 14.866 34.054 33.244l0.001 0.051v490.35c29.956 22.548 49.123 58.037 49.123 98.004 0 0.013 0 0.026 0 0.039v-0.002zM898.019 717.517c-8.295-2.652-17.837-4.181-27.736-4.181-8.87 0-17.453 1.227-25.589 3.521l0.663-0.16c-7.999 2.26-14.973 5.253-21.447 9.013l0.44-0.236q-1.668 0.907-3.248 1.931l-3.335 2.165c-0.878 0.614-1.726 1.2-2.575 1.843l-0.965 0.38c-1.024 0.79-2.048 1.58-2.926 2.399l-0.293 0.234-3.131 2.692-0.234 0.234c-0.965 0.878-1.902 1.785-2.926 2.692l-0.527 0.556c-0.79 0.761-1.521 1.58-2.282 2.37l-1.112 1.229-1.492 1.726c-0.614 0.731-1.258 1.492-1.872 2.282l-0.585 0.731c-2.514 3.222-4.952 6.844-7.132 10.634l-0.241 0.455c-7.608 13.126-12.097 28.881-12.097 45.683 0 8.731 1.212 17.179 3.477 25.184l-0.157-0.651c0.272 0.705 0.478 1.526 0.58 2.379l0.005 0.050c11.898 38.499 47.172 65.986 88.866 65.986 51.27 0 92.833-41.563 92.833-92.833 0-41.275-26.936-76.258-64.189-88.33l-0.657-0.184zM894.713 686.095c1.726 0.351 3.423 0.761 5.149 1.2l1.463 0.38c1.141 0.293 2.311 0.644 3.482 0.995l2.633 0.79 1.989 0.673 3.803 1.346v-473.966c0-0.009 0-0.019 0-0.030 0-2.23-1.808-4.037-4.037-4.037-0.021 0-0.041 0-0.062 0h-234.873c-0.963 0.232-2.072 0.37-3.211 0.38h-170.752c-0.023-0.001-0.051-0.001-0.079-0.001-0.977 0-1.87 0.354-2.56 0.942l0.006-0.005c-0.668 0.72-1.079 1.687-1.083 2.749v219.049c0.228 0.874 0.366 1.88 0.38 2.917v217.477c-0.008 1.186-0.146 2.336-0.401 3.441l0.021-0.106v155.736c0 0.009 0 0.019 0 0.030 0 2.23 1.808 4.037 4.037 4.037 0.021 0 0.041 0 0.062 0h247.893c-0.54-4.286-0.848-9.246-0.848-14.277s0.308-9.992 0.907-14.861l-0.058 0.584 0.263-2.165c0-0.848 0.234-1.697 0.38-2.545 0.234-1.638 0.527-3.277 0.848-4.886 0-0.497 0.205-0.965 0.322-1.463 0.293-1.434 0.644-2.926 0.995-4.301l0.263-1.024c0.439-1.726 0.936-3.452 1.463-5.149 0-0.41 0.263-0.79 0.38-1.2 0.41-1.229 0.819-2.487 1.258-3.745l0.702-1.902c0.351-0.907 0.702-1.814 1.083-2.75 0.731-1.814 1.521-3.628 2.341-5.413v0 0c0.731-1.58 1.492-3.16 2.282-4.71l0.673-1.258c0.527-1.024 1.083-2.019 1.668-2.926s1.083-1.931 1.638-2.926l0.673-1.053c14.331-23.255 35.657-41.008 61.013-50.515l0.837-0.275h0.293l0.731-0.263c1.58-0.556 3.16-1.112 4.74-1.609l1.346-0.38c1.492-0.468 2.926-0.878 4.447-1.287l0.936-0.234 5.179-1.2h0.205c7.388-1.604 15.875-2.523 24.576-2.523s17.188 0.919 25.369 2.665l-0.793-0.142zM576.366 153.556c-0.044 0-0.096 0.001-0.147 0.001-8.079 0-14.629-6.549-14.629-14.629 0-0.062 0-0.124 0.001-0.186v0.009-138.708h-384.731v138.708c0.009 0.196 0.015 0.427 0.015 0.658 0 8.176-6.628 14.804-14.804 14.804s-14.804-6.628-14.804-14.804c0-0.231 0.005-0.462 0.016-0.69l-0.001 0.032v-138.708h-74.138c-2.714 0.352-5.064 1.692-6.717 3.642l-0.013 0.015c-1.528 1.748-2.46 4.051-2.46 6.572 0 0.282 0.012 0.561 0.035 0.837l-0.002-0.036 17.379 221.36c0.884 19.784 14.74 36.098 33.227 40.692l0.302 0.063 103.483 25.863c9.843 2.295 18.468 5.41 26.59 9.392l-0.727-0.322c28.234-37.47 72.648-61.442 122.662-61.442 0.272 0 0.544 0.001 0.816 0.002h-0.042c37.891 0.235 72.518 14.024 99.318 36.757l-0.224-0.185v-65.419c0.033-18.585 15.090-33.642 33.672-33.675h157.845l13.634-172.939v-0.907c0-0.026 0-0.057 0-0.088 0-5.672-4.598-10.269-10.269-10.269-0.031 0-0.062 0-0.093 0h-70.212v138.796c0.001 0.053 0.001 0.117 0.001 0.18 0 8.079-6.549 14.629-14.629 14.629-0.124 0-0.247-0.002-0.37-0.005h0.018zM174.665 570.032c0.002 19.286 12.493 35.654 29.826 41.456l0.308 0.090h0.38c0.995 0.293 2.019 0.585 2.926 0.819l1.346 0.293 2.282 0.38h0.848v-86.543c-21.515 2.932-37.918 21.187-37.918 43.273 0 0.082 0 0.163 0.001 0.244v-0.013zM326.802 810.467h41.691c23.563-0.347 44.107-12.955 55.57-31.717l0.165-0.291c2.569-4.434 7.292-7.369 12.7-7.369 2.752 0 5.326 0.76 7.524 2.081l-0.066-0.037h0.205c6.368 4.091 13.872 7.039 21.925 8.351l0.339 0.046v-106.672c-29.257 6.32-46.373 18.403-54.74 26.331h-0.146l-1.492 1.346-0.497 0.527-0.79 0.41-0.644 0.585c-3.789 3.123-8.692 5.017-14.038 5.017-7.061 0-13.351-3.305-17.406-8.452l-0.036-0.047c-1.375-1.697-2.75-3.365-4.155-4.974-0.497-0.585-0.995-1.112-1.521-1.668-0.907-0.995-1.814-2.019-2.75-2.926s-1.229-1.229-1.872-1.872-1.638-1.638-2.487-2.428-1.404-1.287-2.107-1.902-1.551-1.434-2.341-2.107-1.521-1.258-2.282-1.872-1.463-1.229-2.224-1.814l-2.428-1.814c-0.702-0.527-1.404-1.053-2.136-1.551s-1.726-1.2-2.604-1.785l-1.989-1.317-2.779-1.697-1.872-1.112-2.926-1.638-1.755-0.936-2.926-1.521-1.697-0.79c-1.024-0.497-2.077-0.936-3.131-1.404l-1.609-0.673-3.189-1.287-1.58-0.585-3.189-1.112-1.638-0.556-3.101-0.936-1.814-0.527-2.926-0.761-2.224-0.556-2.311-0.527-2.926-0.614-1.521-0.293c-1.375-0.263-2.721-0.497-4.096-0.702h-0.205c-7.028-1.057-15.139-1.661-23.39-1.661-11.845 0-23.399 1.244-34.539 3.609l1.083-0.192c-1.499 0.37-3.22 0.582-4.991 0.582-4.711 0-9.071-1.5-12.629-4.049l0.065 0.045-0.351-0.293-0.761-0.527c-0.205-0.156-0.387-0.319-0.554-0.495l-0.002-0.002c-0.436-0.305-0.818-0.622-1.172-0.968l0.002 0.002c-0.38-0.351-0.761-0.761-1.112-1.141-1.586-1.665-2.91-3.598-3.895-5.72l-0.055-0.131c-6.519-0.342-12.644-1.473-18.459-3.302l0.525 0.142v40.024c0.347 71.76 58.41 129.843 130.129 130.223h0.036zM279.64 325.617h0.234c5.042 2.447 9.384 5.376 13.251 8.826l-0.056-0.049 0.176 0.176c0.936 0.819 1.814 1.638 2.692 2.516l0.673 0.731c0.673 0.702 1.346 1.404 1.989 2.165 0.255 0.282 0.504 0.587 0.738 0.904l0.023 0.032c0.585 0.702 1.17 1.375 1.726 2.107s0.614 0.848 0.907 1.287 0.936 1.258 1.375 1.902l0.848 1.404c0.41 0.673 0.819 1.287 1.2 1.96s0.527 0.995 0.79 1.492 0.731 1.317 1.053 1.989 0.468 1.083 0.731 1.638 0.614 1.287 0.878 1.96 0.439 1.17 0.644 1.755 0.497 1.287 0.731 1.96 0.351 1.17 0.527 1.785 0.439 1.346 0.614 2.019 0.263 1.229 0.41 1.872 0.351 1.346 0.468 2.019 0.205 1.258 0.293 1.902 0.263 1.375 0.351 2.048 0 1.229 0 1.843 0.176 1.434 0.205 2.165l1.112-0.41h0.439c15.725-5.989 33.91-9.456 52.905-9.456 18.3 0 35.848 3.219 52.109 9.12l-1.063-0.337 3.452 1.17c1.19-22.121 14.315-40.919 33.006-50.167l0.347-0.155 8.221-4.008c-23.092-27.581-57.538-44.996-96.051-44.996s-72.959 17.415-95.892 44.801l-0.159 0.196zM466.885 402.125v-49.064c-9.338 5.293-15.536 15.164-15.536 26.483 0 0.009 0 0.017 0 0.026v-0.001 11.352c5.895 3.746 10.953 7.436 15.766 11.414l-0.259-0.208zM242.834 512.366c0.007 0.114 0.011 0.247 0.011 0.38s-0.004 0.267-0.012 0.398l0.001-0.018v0.205q0 0.995-0.176 2.019-0.176 3.101-0.176 6.232v103.98h0.907l1.96-0.293h0.41c8.18-1.228 17.62-1.929 27.224-1.929s19.044 0.701 28.272 2.055l-1.048-0.126 1.346 0.205 3.745 0.614c36.277 6.236 67.499 24.437 90.165 50.321l0.152 0.177c12.317-10.533 35.109-24.956 71.387-31.627v-200.353c-23.177-29.583-58.904-48.417-99.030-48.417-66.028 0-120.144 50.996-125.112 115.75l-0.026 0.426zM924.789 840.046c-2.687 2.469-6.287 3.983-10.24 3.983s-7.553-1.514-10.251-3.993l0.011 0.010-41.896-41.925c-0.695-0.705-1.661-1.141-2.729-1.141-0.018 0-0.036 0-0.053 0h0.003c-0.843 0.003-1.602 0.362-2.134 0.934l-0.002 0.002-20.158 20.187-0.205 0.176c-2.69 2.463-6.289 3.972-10.24 3.972s-7.55-1.509-10.251-3.983l0.011 0.010-0.205-0.176c-2.714-2.707-4.393-6.45-4.393-10.585 0-0.125 0.002-0.251 0.005-0.375v0.018c0.079-3.937 1.784-7.46 4.467-9.939l0.009-0.009 32.475-32.827c2.592-2.606 6.18-4.219 10.145-4.219 0.147 0 0.293 0.002 0.438 0.007l-0.021-0.001c3.878 0.048 7.414 1.479 10.144 3.821l-0.021-0.018 55.208 55.15c2.713 2.702 4.392 6.442 4.392 10.573 0 0.12-0.001 0.239-0.004 0.358v-0.018c-0.056 3.965-1.777 7.517-4.495 9.996l-0.011 0.010zM641.083 646.246h129.463c7.888 0.362 14.146 6.845 14.146 14.789s-6.258 14.428-14.114 14.788l-0.032 0.001h-129.463c-0.196 0.009-0.427 0.015-0.658 0.015-8.176 0-14.804-6.628-14.804-14.804s6.628-14.804 14.804-14.804c0.231 0 0.462 0.005 0.69 0.016l-0.032-0.001zM846 601.863h-239.704c-8.176 0-14.804-6.628-14.804-14.804s6.628-14.804 14.804-14.804v0h239.704c8.176 0 14.804 6.628 14.804 14.804s-6.628 14.804-14.804 14.804v0zM846 554.876h-239.704c-7.888-0.362-14.146-6.845-14.146-14.789s6.258-14.428 14.114-14.788l0.032-0.001h239.704c7.888 0.362 14.146 6.845 14.146 14.789s-6.258 14.428-14.114 14.788l-0.032 0.001zM846 507.919h-239.704c-8.176 0-14.804-6.628-14.804-14.804s6.628-14.804 14.804-14.804v0h239.704c8.176 0 14.804 6.628 14.804 14.804s-6.628 14.804-14.804 14.804v0zM846 460.932h-239.704c-7.888-0.362-14.146-6.845-14.146-14.789s6.258-14.428 14.114-14.788l0.032-0.001h239.704c8.058 0.178 14.533 6.705 14.628 14.766v0.009c0.001 0.052 0.001 0.114 0.001 0.176 0 8.079-6.549 14.629-14.629 14.629 0 0-0.001 0-0.001 0v0zM846 414.325h-239.704c-7.888-0.362-14.146-6.845-14.146-14.789s6.258-14.428 14.114-14.788l0.032-0.001h239.704c7.888 0.362 14.146 6.845 14.146 14.789s-6.258 14.428-14.114 14.788l-0.032 0.001zM846 367.338h-239.704c-7.888-0.362-14.146-6.845-14.146-14.789s6.258-14.428 14.114-14.788l0.032-0.001h239.704c7.888 0.362 14.146 6.845 14.146 14.789s-6.258 14.428-14.114 14.788l-0.032 0.001zM564.868 601.863h-7.022c-8.176 0-14.804-6.628-14.804-14.804s6.628-14.804 14.804-14.804v0h7.022c8.176 0 14.804 6.628 14.804 14.804s-6.628 14.804-14.804 14.804v0zM564.868 554.876h-7.022c-0.196 0.009-0.427 0.015-0.658 0.015-8.176 0-14.804-6.628-14.804-14.804s6.628-14.804 14.804-14.804c0.231 0 0.462 0.005 0.69 0.016l-0.032-0.001h7.022c0.196-0.009 0.427-0.015 0.658-0.015 8.176 0 14.804 6.628 14.804 14.804s-6.628 14.804-14.804 14.804c-0.231 0-0.462-0.005-0.69-0.016l0.032 0.001zM564.868 507.919h-7.022c-8.176 0-14.804-6.628-14.804-14.804s6.628-14.804 14.804-14.804v0h7.022c8.176 0 14.804 6.628 14.804 14.804s-6.628 14.804-14.804 14.804v0zM564.868 460.932h-7.022c-0.196 0.009-0.427 0.015-0.658 0.015-8.176 0-14.804-6.628-14.804-14.804s6.628-14.804 14.804-14.804c0.231 0 0.462 0.005 0.69 0.016l-0.032-0.001h7.022c8.126 0.097 14.69 6.651 14.804 14.764v0.011c0.001 0.053 0.001 0.115 0.001 0.177 0 8.079-6.549 14.629-14.629 14.629-0.062 0-0.124 0-0.186-0.001h0.009zM564.868 414.325h-7.022c-0.196 0.009-0.427 0.015-0.658 0.015-8.176 0-14.804-6.628-14.804-14.804s6.628-14.804 14.804-14.804c0.231 0 0.462 0.005 0.69 0.016l-0.032-0.001h7.022c0.196-0.009 0.427-0.015 0.658-0.015 8.176 0 14.804 6.628 14.804 14.804s-6.628 14.804-14.804 14.804c-0.231 0-0.462-0.005-0.69-0.016l0.032 0.001zM564.868 367.338h-7.022c-0.196 0.009-0.427 0.015-0.658 0.015-8.176 0-14.804-6.628-14.804-14.804s6.628-14.804 14.804-14.804c0.231 0 0.462 0.005 0.69 0.016l-0.032-0.001h7.022c0.196-0.009 0.427-0.015 0.658-0.015 8.176 0 14.804 6.628 14.804 14.804s-6.628 14.804-14.804 14.804c-0.231 0-0.462-0.005-0.69-0.016l0.032 0.001z" />
<glyph unicode="&#xe909;" glyph-name="delivery-notes-01" d="M934.444 682.057l-225.017 229.317c-3.422 3.473-8.172 5.63-13.426 5.647h-430.873c-50.907 0-92.306-42.16-92.306-94.003v-759.691c0-51.814 41.399-94.003 92.306-94.003h582.568c50.907 0 92.306 42.189 92.306 94.003v605.213c-0.044 5.264-2.157 10.026-5.563 13.521l0.004-0.004zM715.015 850.842l160.154-162.933h-105.706c-0.027 0-0.058 0-0.089 0-15.023 0-28.599 6.194-38.314 16.168l-0.011 0.012c-9.841 10.021-15.916 23.77-15.916 38.938 0 0.063 0 0.126 0 0.188v-0.010zM902.056 63.181c0.001-0.123 0.002-0.267 0.002-0.412 0-30.118-24.258-54.57-54.302-54.883h-582.627c-30.074 0.313-54.332 24.766-54.332 54.884 0 0.145 0.001 0.29 0.002 0.435v-0.022 759.837c-0.001 0.131-0.002 0.286-0.002 0.442 0 30.118 24.259 54.57 54.303 54.883h411.912v-135.168c-0.001-0.123-0.001-0.269-0.001-0.415 0-25.728 10.32-49.047 27.047-66.040l-0.012 0.012c16.525-16.99 39.605-27.531 65.147-27.531 0.096 0 0.191 0 0.287 0h132.695zM590.994 266.43h-8.514c-10.681 0-19.339-8.658-19.339-19.339s8.658-19.339 19.339-19.339h8.514c10.681 0 19.339 8.658 19.339 19.339s-8.658 19.339-19.339 19.339v0zM521.040 266.43h-184.32c-10.681 0-19.339-8.658-19.339-19.339s8.658-19.339 19.339-19.339h184.32c10.681 0 19.339 8.658 19.339 19.339s-8.658 19.339-19.339 19.339v0zM775.987 354.816h-439.267c-10.368-0.416-18.616-8.922-18.616-19.354s8.248-18.938 18.578-19.352l0.038-0.001h439.384c10.368 0.416 18.616 8.922 18.616 19.354s-8.248 18.938-18.578 19.352l-0.038 0.001zM775.987 443.173h-439.267c-10.681 0-19.339-8.658-19.339-19.339s8.658-19.339 19.339-19.339h439.384c10.681 0 19.339 8.658 19.339 19.339s-8.658 19.339-19.339 19.339v0zM317.733 512.219c-0.001-0.052-0.001-0.114-0.001-0.176 0-10.522 8.48-19.064 18.979-19.163h439.393c10.681 0 19.339 8.658 19.339 19.339s-8.658 19.339-19.339 19.339h-439.384c-10.508-0.099-18.989-8.64-18.989-19.163 0-0.062 0-0.124 0.001-0.186v0.009z" />
<glyph unicode="&#xe90a;" glyph-name="email-01" d="M600.21 464.56v0l319.108 326.217c-9.972 5.094-21.74 8.111-34.205 8.192h-748.482c-12.491-0.077-24.259-3.095-34.671-8.395l0.44 0.203 406.674-415.92zM956.943 752.274l-300.295-306.937 300.295-306.966c4.968 10.232 7.889 22.251 7.929 34.949v544.021c-0.036 12.701-2.957 24.711-8.142 35.421l0.213-0.488zM64.775 752.274c-5.003-10.272-7.946-22.342-7.987-35.094v-543.846c0.064-12.718 3.004-24.734 8.201-35.452l-0.214 0.49 300.266 306.966zM527.887 317.308c-4.758-4.924-11.421-7.981-18.798-7.981s-14.040 3.057-18.791 7.974l-0.007 0.007-87.771 89.585-300.12-307.054c9.98-5.103 21.756-8.13 34.23-8.221h748.457c12.481 0.078 24.239 3.096 34.641 8.395l-0.439-0.203-300.237 307.054z" />
<glyph unicode="&#xe90b;" glyph-name="invoic-01" d="M928.651 464.618h-137.713v436.458c-0.013 7.678-4.705 14.258-11.376 17.041l-0.122 0.045c-2.105 0.893-4.553 1.412-7.123 1.412-5.131 0-9.779-2.071-13.153-5.422l0.001 0.001-52.663-52.4-52.663 52.4c-3.378 3.351-8.030 5.422-13.166 5.422s-9.788-2.071-13.167-5.423l0.001 0.001-52.663-52.4-52.663 52.4c-3.375 3.358-8.028 5.434-13.166 5.434s-9.791-2.076-13.166-5.435l-52.662-52.399-52.663 52.4c-3.378 3.351-8.030 5.422-13.166 5.422s-9.788-2.071-13.167-5.423l0.001 0.001-52.663-52.4-52.663 52.4c-3.375 3.358-8.028 5.434-13.166 5.434s-9.791-2.076-13.166-5.435l-52.662-52.399-52.663 52.4c-3.367 3.315-7.991 5.362-13.093 5.362s-9.726-2.047-13.095-5.364l0.002 0.002c-3.435-3.342-5.565-8.009-5.565-13.173 0-0.172 0.002-0.344 0.007-0.515l-0.001 0.025v-831.664c0.216-53.159 43.359-96.169 96.548-96.169 0.083 0 0.165 0 0.248 0h658.243c0.061 0 0.133 0 0.206 0 53.189 0 96.332 43.010 96.548 96.148v377.438c-0.099 10.169-8.366 18.374-18.548 18.374-0.021 0-0.042 0-0.063 0h0.003zM191.81 9.64c-0.044 0-0.095 0-0.147 0-32.735 0-59.288 26.471-59.421 59.175v787.586l34.085-33.909c3.378-3.351 8.030-5.422 13.166-5.422s9.788 2.071 13.167 5.423l-0.001-0.001 52.663 52.4 52.663-52.4c3.378-3.351 8.030-5.422 13.166-5.422s9.788 2.071 13.167 5.423l-0.001-0.001 52.663 52.4 52.663-52.4c3.378-3.351 8.030-5.422 13.166-5.422s9.788 2.071 13.167 5.423l-0.001-0.001 52.663 52.4 52.663-52.4c3.378-3.351 8.030-5.422 13.166-5.422s9.788 2.071 13.167 5.423l-0.001-0.001 52.663 52.4 53.102-52.4c3.378-3.351 8.030-5.422 13.166-5.422s9.788 2.071 13.167 5.423l-0.001-0.001 33.997 33.938v-410.331s0-0.322 0-0.497v-376.773c0-0.049 0-0.107 0-0.164 0-22.38 7.715-42.957 20.63-59.219l-0.15 0.196zM910.043 68.827c0-32.882-26.656-59.538-59.538-59.538s-59.538 26.656-59.538 59.538v0 358.693h119.077zM442.982 531.792c-18.461 0-33.499 12.785-33.499 28.496 0 10.277-8.331 18.608-18.608 18.608s-18.608-8.331-18.608-18.608v0c0-30.164 22.118-55.589 52.107-63.166v-15.097c0-10.277 8.331-18.608 18.608-18.608s18.608 8.331 18.608 18.608v0 15.097c29.989 7.578 52.107 33.002 52.107 63.166 0 36.103-31.715 65.477-70.715 65.477-18.461 0-33.499 12.785-33.499 28.496s15.038 28.526 33.499 28.526 33.499-12.785 33.499-28.526c0-10.277 8.331-18.608 18.608-18.608s18.608 8.331 18.608 18.608v0c0 30.164-22.118 55.589-52.107 63.195v12.522c0 10.277-8.331 18.608-18.608 18.608s-18.608-8.331-18.608-18.608v0-12.522c-29.989-7.607-52.107-33.031-52.107-63.195 0-36.103 31.744-65.477 70.715-65.477 18.491 0 33.499-12.785 33.499-28.496s-15.009-28.496-33.499-28.496zM593.657 588.785h36.279c10.212 0 18.491 8.278 18.491 18.491s-8.278 18.491-18.491 18.491v0h-36.279c-10.212 0-18.491-8.278-18.491-18.491s8.278-18.491 18.491-18.491v0zM292.308 625.766h-36.279c-10.212 0-18.491-8.278-18.491-18.491s8.278-18.491 18.491-18.491v0h36.279c10.212 0 18.491 8.278 18.491 18.491s-8.278 18.491-18.491 18.491v0zM639.356 420.206h-294.795c-10.212 0-18.491-8.278-18.491-18.491s8.278-18.491 18.491-18.491h294.795c10.212 0 18.491 8.278 18.491 18.491s-8.278 18.491-18.491 18.491v0zM246.638 420.206c-5.132-0.014-9.779-2.078-13.168-5.415l0.002 0.002c-3.362-3.34-5.443-7.966-5.443-13.078s2.081-9.738 5.442-13.077l0.001-0.001c3.366-3.414 8.042-5.53 13.212-5.53 10.244 0 18.549 8.305 18.549 18.549s-8.305 18.549-18.549 18.549c-0.016 0-0.033 0-0.049 0h0.003zM639.356 298.145h-294.795c-10.212 0-18.491-8.278-18.491-18.491s8.278-18.491 18.491-18.491v0h294.795c10.212 0 18.491 8.278 18.491 18.491s-8.278 18.491-18.491 18.491v0zM246.638 298.145c-5.132-0.014-9.779-2.078-13.168-5.415l0.002 0.002c-3.362-3.34-5.443-7.966-5.443-13.078s2.081-9.738 5.442-13.077l0.001-0.001c3.366-3.414 8.042-5.53 13.212-5.53 10.244 0 18.549 8.305 18.549 18.549s-8.305 18.549-18.549 18.549c-0.016 0-0.033 0-0.049 0h0.003zM639.356 176.084h-294.795c-10.212 0-18.491-8.278-18.491-18.491s8.278-18.491 18.491-18.491h294.795c10.212 0 18.491 8.278 18.491 18.491s-8.278 18.491-18.491 18.491v0zM246.638 176.084c-5.132-0.014-9.779-2.078-13.168-5.415l0.002 0.002c-3.362-3.34-5.443-7.966-5.443-13.078s2.081-9.738 5.442-13.077l0.001-0.001c3.366-3.414 8.042-5.53 13.212-5.53 10.244 0 18.549 8.305 18.549 18.549s-8.305 18.549-18.549 18.549c-0.016 0-0.033 0-0.049 0h0.003z" />
<glyph unicode="&#xe90c;" glyph-name="kids-01" d="M820.107 239.514l-126.303 36.25-22.411 43.886c-3.723 7.094-10.028 12.408-17.636 14.748l-0.21 0.056c-2.536 0.758-5.45 1.194-8.465 1.194-3.656 0-7.163-0.641-10.414-1.817l0.213 0.067v46.811c47.832 32.453 81.209 83.133 90.199 141.844l0.147 1.165h8.543c28.116 0 52.195 20.48 54.857 46.373 0.174 1.582 0.274 3.416 0.274 5.274 0 13.39-5.167 25.573-13.615 34.665l0.029-0.032c-4.328 4.644-9.442 8.486-15.141 11.33l-0.306 0.138 16.969 99.474c0.66 3.698 1.037 7.955 1.037 12.3 0 29.407-17.286 54.777-42.25 66.504l-0.449 0.19c13.458 33.412 10.503 74.869-8.953 119.194-1.956 4.26-5.807 7.357-10.443 8.236l-0.090 0.014c-0.827 0.166-1.778 0.261-2.752 0.261-3.959 0-7.55-1.572-10.184-4.127l0.004 0.004c-0.263-0.263-28.496-25.951-97.631-25.951h-138.679c-0.266 0.002-0.581 0.003-0.896 0.003-58.943 0-109.223-37.086-128.782-89.196l-0.312-0.948h-12.932c-0.058 0-0.126 0-0.194 0-23.034 0-43.695-10.159-57.746-26.242l-0.077-0.090c-11.101-12.714-17.871-29.459-17.871-47.785 0-4.349 0.381-8.609 1.112-12.748l-0.064 0.438 17.115-100.147c-15.63-7.588-26.715-22.398-28.967-39.971l-0.027-0.257c-0.167-1.552-0.263-3.352-0.263-5.174 0-13.444 5.197-25.675 13.691-34.793l-0.028 0.031c9.817-10.473 23.738-16.998 39.182-16.998 0.018 0 0.036 0 0.055 0h10.764c9.083-59.859 42.427-110.535 89.499-142.512l0.73-0.468v-46.811c-2.959 1.036-6.369 1.634-9.92 1.634-3.107 0-6.107-0.458-8.936-1.311l0.219 0.057c-7.818-2.396-14.124-7.71-17.769-14.641l-0.078-0.163-22.411-43.886-126.274-36.074c-45.173-12.961-76.712-54.096-76.712-100.030v-157.989c0-7.966 6.458-14.424 14.424-14.424s14.424 6.458 14.424 14.424v0 157.989c0.373 34.678 23.665 63.816 55.426 73.008l0.543 0.134 53.833 15.448v-246.55c0.357-7.682 6.672-13.774 14.409-13.774s14.052 6.093 14.408 13.742l0.001 0.032v254.83l32.797 9.392v-264.221c0.357-7.682 6.672-13.774 14.409-13.774s14.052 6.093 14.408 13.742l0.001 0.032v255.005l59.86-50.059c7.83-6.606 18.032-10.62 29.173-10.62 0.030 0 0.059 0 0.089 0h-0.005c0.036 0 0.079 0 0.122 0 1.482 0 2.946 0.074 4.39 0.22l-0.182-0.015c12.57 1.096 23.53 7.199 31.009 16.277l0.062 0.077 30.457 37.157 30.457-37.157c7.532-9.225 18.518-15.383 30.957-16.489l0.172-0.012c1.463-0.146 2.926-0.205 4.359-0.205 0.019 0 0.041 0 0.063 0 11.147 0 21.357 4.014 29.263 10.677l-0.068-0.056 75.337 63.020 46.109-13.224v-254.83c0-7.966 6.458-14.424 14.424-14.424s14.424 6.458 14.424 14.424v0 246.696l53.804-15.448c32.3-9.342 55.591-38.468 55.998-73.096v-158.036c0.357-7.682 6.672-13.774 14.409-13.774s14.052 6.093 14.408 13.742l0.001 0.032v157.989c0.059 46.021-31.481 87.157-76.624 100.118zM721.042 775.329c16.573-7.080 27.976-23.24 27.976-42.065 0-2.711-0.236-5.366-0.69-7.946l0.040 0.274-16.94-98.597h-18.578c-0.044 0-0.096-0.001-0.148-0.001-8.886 0-16.105 7.137-16.236 15.992v109.287c9.524 6.444 17.641 14.077 24.398 22.815l0.178 0.24zM287.51 762.982c8.782 10.011 21.6 16.296 35.886 16.296 0.056 0 0.112 0 0.167 0h6.252c-0.628-4.8-0.989-10.357-0.995-15.997v-120.283c-0.132-8.867-7.35-16.004-16.236-16.004-0.052 0-0.104 0-0.156 0.001h-18.629l-16.823 98.655c-0.408 2.281-0.642 4.908-0.642 7.588 0 11.416 4.234 21.842 11.218 29.795l-0.044-0.051zM326.832 552.799c-0.357 7.682-6.672 13.774-14.409 13.774s-14.052-6.093-14.408-13.742l-0.001-0.032v-0.965h-8.777c-0.014 0-0.031 0-0.047 0-7.016 0-13.34 2.965-17.787 7.711l-0.012 0.013c-3.87 4.114-6.248 9.67-6.248 15.781 0 0.872 0.048 1.733 0.143 2.579l-0.009-0.104c1.229 11.703 12.727 21.036 26.156 21.036h20.948c0.14-0.002 0.306-0.002 0.472-0.002 24.501 0 44.402 19.697 44.73 44.121v120.307c0 58.514 48.801 106.233 108.807 106.233h138.65c50.586 0 83.090 12.464 100.966 22.323 12.932-37.829 11.176-71.417-5.325-95.817-14.218-20.473-37.612-33.708-64.096-33.708-0.259 0-0.518 0.001-0.777 0.004h-231.091c-0.191 0.009-0.416 0.015-0.641 0.015-7.772 0-14.073-6.301-14.073-14.073s6.301-14.073 14.073-14.073c0.226 0 0.45 0.005 0.673 0.016l-0.032-0.001h231.131c0.024 0 0.053 0 0.082 0 11.312 0 22.227 1.7 32.503 4.859l-0.783-0.207v-95.846c0.329-24.454 20.229-44.152 44.73-44.152 0.176 0 0.352 0.001 0.528 0.003h23.057c0.020 0 0.044 0 0.068 0 7.028 0 13.364-2.964 17.826-7.711l0.012-0.013c3.855-4.106 6.223-9.648 6.223-15.743 0-0.885-0.050-1.759-0.147-2.619l0.010 0.105c-1.2-11.703-12.698-21.036-26.185-21.036h-6.437v0.819c-0.099 7.794-6.44 14.073-14.247 14.073-0.052 0-0.104 0-0.155-0.001h0.008c-0.053 0.001-0.115 0.001-0.177 0.001-7.808 0-14.149-6.28-14.247-14.064v-0.009c0-99.942-83.441-181.394-185.841-181.394s-185.841 81.51-185.841 181.541zM459.717 209.993c-3.080-3.665-7.666-5.978-12.793-5.978-4.045 0-7.753 1.44-10.641 3.835l0.028-0.022-75.103 62.815 18.578 36.279c0.111 0.254 0.336 0.441 0.609 0.496l0.005 0.001c0.112 0.053 0.242 0.084 0.38 0.084s0.269-0.031 0.386-0.086l-0.006 0.002 109.656-59.451zM419.255 318.83v45.349c27.355-13.203 59.485-20.919 93.418-20.919s66.063 7.716 94.733 21.488l-1.315-0.569v-45.349l-93.418-50.644zM589.122 207.828c-2.859-2.394-6.577-3.848-10.634-3.848-0.551 0-1.097 0.027-1.634 0.079l0.068-0.005c-4.555 0.377-8.537 2.561-11.272 5.826l-0.021 0.026-31.042 38.034 109.656 59.451c0.116 0.053 0.252 0.084 0.395 0.084s0.279-0.031 0.401-0.087l-0.006 0.002c0.255-0.086 0.461-0.263 0.582-0.492l0.003-0.006 18.578-36.279zM682.101 206.014c-0.044 0-0.096 0.001-0.147 0.001-7.808 0-14.148-6.28-14.247-14.064v-210.66c0-7.966 6.458-14.424 14.424-14.424s14.424 6.458 14.424 14.424v0 210.651c-0.098 7.794-6.439 14.074-14.247 14.074-0.072 0-0.145-0.001-0.217-0.002h0.011zM512.819 175.909h-0.146c-0.052 0.001-0.114 0.001-0.176 0.001-7.79 0-14.111-6.291-14.16-14.069v-0.005c-0.003-0.113-0.005-0.247-0.005-0.38 0-7.982 6.471-14.453 14.453-14.453s14.453 6.471 14.453 14.453c0 7.97-6.451 14.433-14.417 14.453h-0.002zM512.819-4.52h-0.146c-8.048-0.042-14.555-6.575-14.555-14.628 0-8.079 6.549-14.629 14.629-14.629s14.629 6.549 14.629 14.629c0 8.053-6.508 14.587-14.551 14.628h-0.004zM512.819 85.709h-0.146c-8.048-0.042-14.555-6.575-14.555-14.628 0-8.079 6.549-14.629 14.629-14.629s14.629 6.549 14.629 14.629c0 8.053-6.508 14.587-14.551 14.628h-0.004zM434.673 581.559v15.038c-0.357 7.682-6.672 13.774-14.409 13.774s-14.052-6.093-14.408-13.742l-0.001-0.032v-15.038c0.357-7.682 6.672-13.774 14.409-13.774s14.052 6.093 14.408 13.742l0.001 0.032zM605.096 610.67c-0.044 0-0.096 0.001-0.148 0.001-7.813 0-14.161-6.276-14.276-14.063v-15.049c0-7.966 6.458-14.424 14.424-14.424s14.424 6.458 14.424 14.424v0 15.038c-0.115 7.797-6.463 14.073-14.276 14.073-0.052 0-0.104 0-0.156-0.001h0.008zM450.033 642.999c-0.082 7.79-6.416 14.074-14.218 14.074-0.062 0-0.124 0-0.186-0.001h-30.799c-7.772 0-14.073-6.301-14.073-14.073s6.301-14.073 14.073-14.073h30.837c0.044 0 0.096-0.001 0.147-0.001 7.808 0 14.148 6.28 14.247 14.064v0.009zM589.678 628.926h30.808c7.772 0 14.073 6.301 14.073 14.073s-6.301 14.073-14.073 14.073h-30.779c-7.772 0-14.073-6.301-14.073-14.073s6.301-14.073 14.073-14.073v0zM596.378 513.946c-0.099 7.794-6.44 14.073-14.247 14.073-0.052 0-0.104 0-0.155-0.001h-138.612c-0.053 0.001-0.115 0.001-0.177 0.001-7.808 0-14.149-6.28-14.247-14.064v-0.009c0-40.96 37.566-74.196 83.734-74.196s83.734 33.265 83.734 74.196zM460.332 499.873h104.624c-7.080-18.549-27.853-32.007-52.283-32.007s-45.202 13.458-52.312 32.007z" />
<glyph unicode="&#xe90d;" glyph-name="phone-01" d="M884.326 305.547c-0.301-0.001-0.656-0.001-1.012-0.001-56.15 0-110.129 9.296-160.482 26.432l3.506-1.036c-24.752 8.485-55.15 0.702-70.217-14.95l-99.474-75.893c-115.478 62.23-186.573 134.027-247.369 249.71l72.938 97.894c12.966 13.128 20.975 31.179 20.975 51.1 0 7.874-1.251 15.456-3.566 22.557l0.145-0.514c-16.029 47.481-25.279 102.164-25.279 159.007 0 0.259 0 0.518 0.001 0.777v-0.040c0 0.061 0 0.133 0 0.206 0 39.357-31.797 71.288-71.104 71.503h-162.486c-39.286-0.249-71.037-32.153-71.037-71.474 0-0.083 0-0.165 0-0.248v0.013c0-453.486 365.363-822.126 814.46-822.126 39.282 0.232 71.037 32.13 71.037 71.445 0 0.093 0 0.186-0.001 0.279v-0.014 163.84c0 0.018 0 0.039 0 0.060 0 39.32-31.751 71.225-71.013 71.474h-0.024z" />
<glyph unicode="&#xe90e;" glyph-name="purest-water-01" d="M655.097 641.097c-22.528 42.715-45.846 86.894-66.414 130.428-2.32 4.827-7.17 8.099-12.785 8.099-7.81 0-14.141-6.331-14.141-14.141 0-2.195 0.5-4.273 1.392-6.126l-0.037 0.085c20.831-44.091 44.295-88.561 66.97-131.657 69.398-131.657 134.963-255.883 134.963-376.335 0-0.009 0-0.019 0-0.029 0-142.435-115.467-257.902-257.902-257.902h-0.79c-142.374 1.685-257.141 117.494-257.141 260.108 0 0.099 0 0.197 0 0.296v-0.015c0.907 119.691 66.033 243.156 134.963 373.848 47.133 89.351 95.876 181.775 122.88 274.052 9.928-33.446 19.76-60.469 30.929-86.788l-2.023 5.365c2.193-5.189 7.24-8.764 13.122-8.764 7.845 0 14.205 6.36 14.205 14.205 0 1.964-0.398 3.834-1.119 5.535l0.035-0.093c-8.852 20.277-18.404 46.492-26.592 73.303l-1.495 5.691c-3.522 11.79-14.269 20.238-26.99 20.238s-23.468-8.447-26.939-20.039l-0.051-0.199c-26.331-89.732-74.401-181.072-120.978-269.371-67.467-127.766-137.275-260.184-138.211-386.662 0-0.17-0.001-0.372-0.001-0.574 0-158.157 127.301-286.581 285.028-288.397l0.172-0.002h0.878c158.064 0.017 286.193 128.157 286.193 286.223v0c0.117 127.503-70.159 260.74-138.123 389.617zM540.613 33.28c1.618-6.676 7.542-11.557 14.606-11.557 0.008 0 0.016 0 0.023 0h-0.001c1.229 0.009 2.418 0.157 3.559 0.431l-0.107-0.022c82.147 20.294 145.593 83.741 165.564 164.342l0.324 1.546c0.255 1.037 0.402 2.228 0.402 3.452 0 8.301-6.729 15.030-15.030 15.030-7.076 0-13.010-4.89-14.608-11.475l-0.021-0.103c-17.578-71.111-72.507-126.031-142.285-143.314l-1.338-0.28c-6.644-1.641-11.493-7.55-11.493-14.591 0-1.228 0.147-2.421 0.425-3.563l-0.021 0.103z" />
<glyph unicode="&#xe90f;" glyph-name="receipts-01" d="M822.623 711.168l-179.522 192.366c-3.177 3.419-7.681 5.566-12.688 5.617h-377.046c-39.585 0-71.797-34.494-71.797-76.946v-769.463c0-42.423 32.183-76.946 71.797-76.946h502.696c39.731-0.059 71.914 34.582 71.914 77.005v634.763c0 0.004 0 0.010 0 0.015 0 5.258-2.037 10.041-5.365 13.601l0.011-0.011zM648.338 843.498l118.199-126.683h-82.271c-19.836 0-35.928 17.262-35.928 38.473zM791.962 62.8c0-21.211-16.091-38.473-35.899-38.473h-502.696c-19.807 0-35.899 17.262-35.899 38.473v769.463c0 21.211 16.091 38.473 35.899 38.473h359.073v-115.536c0-42.452 32.183-76.946 71.826-76.946h107.696zM702.171 370.556h-394.971c-10.074-0.702-17.98-9.046-17.98-19.237s7.906-18.535 17.92-19.233l0.061-0.003h394.971c10.074 0.702 17.98 9.046 17.98 19.237s-7.906 18.535-17.92 19.233l-0.061 0.003zM702.171 486.034h-394.971c-10.074-0.702-17.98-9.046-17.98-19.237s7.906-18.535 17.92-19.233l0.061-0.003h394.971c10.074 0.702 17.98 9.046 17.98 19.237s-7.906 18.535-17.92 19.233l-0.061 0.003zM702.171 255.225h-394.971c-10.074-0.702-17.98-9.046-17.98-19.237s7.906-18.535 17.92-19.233l0.061-0.003h394.971c10.074 0.702 17.98 9.046 17.98 19.237s-7.906 18.535-17.92 19.233l-0.061 0.003zM522.65 139.805h-215.45c-10.074-0.702-17.98-9.046-17.98-19.237s7.906-18.535 17.92-19.233l0.061-0.003h215.45c10.074 0.702 17.98 9.046 17.98 19.237s-7.906 18.535-17.92 19.233l-0.061 0.003zM468.816 582.173c-0.007-0.187-0.011-0.406-0.011-0.626 0-10.060 7.971-18.258 17.941-18.624l0.033-0.001h215.391c10.074 0.702 17.98 9.046 17.98 19.237s-7.906 18.535-17.92 19.233l-0.061 0.003h-215.391c-10.003-0.367-17.973-8.565-17.973-18.625 0-0.21 0.003-0.419 0.010-0.627l-0.001 0.030zM343.157 601.395h-35.957c-10.074-0.702-17.98-9.046-17.98-19.237s7.906-18.535 17.92-19.233l0.061-0.003h17.964c-0.028-0.376-0.044-0.814-0.044-1.256 0-9.937 8.056-17.993 17.993-17.993s17.993 8.056 17.993 17.993c0 0.442-0.016 0.88-0.047 1.314l0.003-0.058v3.54c21.264 8.745 35.964 29.3 35.964 53.288 0 0.305-0.002 0.609-0.007 0.913l0.001-0.046c0 31.832-24.166 57.724-53.862 57.724-10.074 0.702-17.98 9.046-17.98 19.237s7.906 18.535 17.92 19.233l0.061 0.003h35.899c10.074 0.702 17.98 9.046 17.98 19.237s-7.906 18.535-17.92 19.233l-0.061 0.003h-17.964c0.028 0.376 0.044 0.814 0.044 1.256 0 9.937-8.056 17.993-17.993 17.993s-17.993-8.056-17.993-17.993c0-0.442 0.016-0.88 0.047-1.314l-0.003 0.058v-3.54c-21.235-8.778-35.905-29.328-35.905-53.304 0-0.309 0.002-0.618 0.007-0.927l-0.001 0.047c0-31.803 24.166-57.695 53.862-57.695 10.074-0.702 17.98-9.046 17.98-19.237s-7.906-18.535-17.92-19.233l-0.061-0.003z" />
<glyph unicode="&#xe910;" glyph-name="regular-delivery-icon" d="M221.184 320.939c5.513 97.263 36.062 191.488 88.678 273.493 53.453 92.058 114.79 179.319 183.296 260.813 7.475 9.114 13.517 23.654 28.672 4.813 101.854-118.238 186.197-250.487 250.47-392.704 53.043-112.845 35.959-246.187-43.827-342.016-77.926-89.566-203.025-121.805-314.573-81.101-109.278 35.857-185.19 135.305-190.976 250.163-0.614 9.318-1.229 17.92-1.741 26.539z" />
<glyph unicode="&#xe911;" glyph-name="reorder-01" d="M937.019 534.162c-37.040 179.259-173.407 300.851-314.397 335.141l-12.405-48.567c194.94-54.857 303.806-239.909 282.361-423.79-14.365-123.582-129.463-286.223-214.981-297.955l37.332 76.917-44.471 22.645c-2.136-3.569-3.833-5.851-5.12-8.602q-34.553-70.217-68.93-140.288c-11.527-23.64-2.165-40.258 23.406-43.739 32.827-4.418 65.536-9.479 98.304-14.16 23.757-3.394 47.484-6.612 72.031-10.006 2.399 17.905 4.564 34.026 6.788 50.703l-98.918 14.629c190.903 93.477 277.124 302.636 239.002 487.073zM135.373 470.616c8.572 137.509 112.816 293.069 217.79 322.297l-38.034-78.146 45.261-22.938c25.805 52.341 51.171 103.395 75.542 154.946 8.016 16.823-0.673 32.329-19.134 36.337-14.482 3.101-29.257 4.827-43.886 6.963-43.886 6.349-87.771 12.61-132.974 19.076-2.458-17.174-4.798-33.353-7.285-50.615l96.022-14.629c-192.98-115.273-280.196-281.805-230.107-507.085 42.745-191.781 197.778-290.933 309.014-315.012q5.851 23.757 11.966 47.601c-177.854 46.46-295.497 218.551-284.116 401.203zM354.509 600.313c-25.746 0-51.463 0-77.18 0h-14.629v-51.844c22.967 0 45.115-0.585 67.291 0.234 11.176 0.41 16.179-3.131 19.749-14.453 20.48-64.571 41.721-128.731 62.903-193.097 6.671-20.275 12.551-24.371 33.675-24.4q93.623 0 186.982 0c23.406 0 29.257 4.418 35.664 27.502q22.967 81.92 45.67 163.84c7.578 27.385-2.019 40.521-30.047 40.58q-103.161 0.263-206.292 0c-4.272 0-8.514-0.644-12.873-0.965v-50.849h193.448c-11.293-40.141-22.411-78.087-32.446-116.297-2.575-9.713-6.671-12.551-16.238-12.464-45.992 0.468-92.014 0.585-138.006 0-11.118-0.176-16.033 2.926-19.632 14.19-20.48 64.571-41.838 128.731-62.991 193.097-6.875 20.275-13.4 24.927-34.992 24.927zM641.521 251.129c0.002 0.148 0.003 0.322 0.003 0.496 0 21.006-17.029 38.034-38.034 38.034s-38.034-17.029-38.034-38.034c0-20.902 16.86-37.866 37.723-38.033h0.016c0.105-0.001 0.23-0.002 0.354-0.002 20.831 0 37.751 16.747 38.031 37.512v0.026zM451.73 290.187c-0.043 0-0.095 0-0.146 0-21.151 0-38.298-17.147-38.298-38.298 0-21.1 17.063-38.214 38.144-38.298h0.008c0.043 0 0.095 0 0.146 0 21.151 0 38.298 17.147 38.298 38.298 0 21.1-17.063 38.214-38.144 38.298h-0.008z" />
<glyph unicode="&#xe912;" glyph-name="sanitization-service-icon" d="M801.485 486.502c-67.516 137.916-152.32 266.667-252.314 383.181-13.926 17.306-20.463 8.602-29.594-2.56-78.131-92.023-147.712-190.959-207.872-295.629-47.838-79.309-74.53-169.557-77.517-262.144 0.324-24.713 3.584-49.289 9.728-73.216 39.595-146.142 182.784-239.104 332.39-215.774 101.734 7.97 190.635 71.765 230.724 165.598 43.81 95.846 41.762 206.37-5.547 300.544zM671.027 332.902c-24.781 0-49.766-1.126-74.547 0-19.251 1.041-25.088-6.656-23.859-24.764 1.229-18.142 0-33.707 0-50.5v-34.492c0-40.141 4.318-32.768-36.045-35.226-23.125-1.331-31.232 4.71-29.389 28.979 2.253 30.72 0 62.054 0.819 92.979 0.614 17.203-4.915 23.757-22.63 23.125-31.949-1.126-63.898 0-95.846-0.597-15.258 0-19.456 5.325-20.48 20.463-1.126 42.701-1.741 42.701 40.243 42.701 26.726 0 53.35 0.614 79.872 0 14.131 0 18.534 5.035 18.227 18.637-0.717 33.707 0.819 67.379-0.614 100.983-0.717 18.022 5.632 24.269 22.733 21.811 2.662-0.205 5.342-0.205 8.004 0 34.492 0 34.492 0 34.492-33.587 0-28.467 0.734-56.832 0-85.094-0.597-16.896 4.096-23.757 22.426-22.835 30.72 1.434 62.054 0 93.082 0.717 17.818 0.614 23.040-6.144 22.613-23.245-0.802-49.545 2.662-38.895-39.424-39.731l0.324-0.324z" />
<glyph unicode="&#xe913;" glyph-name="secure-payments-01" d="M794.273 199.724v0c-2.235 1.574-5.013 2.516-8.012 2.516-0.012 0-0.024 0-0.036 0h0.002c-0.040 0-0.087 0.001-0.135 0.001-0.853 0-1.686-0.085-2.491-0.248l0.080 0.014c-3.796-0.689-6.996-2.826-9.069-5.805l-0.030-0.046c-6.383-9.136-12.887-17.136-19.917-24.636l0.11 0.119c-5.905-6.208-12.050-12.002-18.499-17.448l-0.343-0.282c-3.051-2.61-4.972-6.464-4.972-10.767 0-7.811 6.332-14.144 14.144-14.144 3.509 0 6.719 1.278 9.191 3.393l-0.019-0.016c7.638 6.434 14.547 12.954 21.075 19.84l0.107 0.114c7.815 8.342 15.165 17.382 21.857 26.917l0.525 0.789c1.575 2.25 2.516 5.044 2.516 8.058 0 4.799-2.388 9.041-6.040 11.602l-0.045 0.030zM702.405 97.616l1.287 0.585c4.843 2.314 8.129 7.173 8.129 12.8 0 7.81-6.331 14.142-14.142 14.142-2.183 0-4.251-0.495-6.097-1.378l0.085 0.037-0.644-0.293c-5.035-2.245-8.481-7.206-8.481-12.971 0-2.061 0.44-4.018 1.231-5.784l-0.036 0.090c2.262-5.011 7.209-8.44 12.959-8.455h0.002c0.003 0 0.007 0 0.011 0 2.064 0 4.022 0.453 5.78 1.264l-0.086-0.035zM990.237 824.92c-0.017 28.519-23.123 51.635-51.636 51.668h-853.2c-28.516-0.033-51.622-23.15-51.639-51.667v-528.708c0.033-28.506 23.133-51.606 51.636-51.639h401.031l0.848-3.628c14.77-60.038 45.239-111.563 86.801-151.668l0.093-0.089c47.075-45.729 102.4-71.007 122.529-71.007s75.454 25.278 122.5 71.007c41.654 40.199 72.13 91.721 86.473 149.608l0.45 2.149 0.848 3.628h31.627c28.506 0.033 51.606 23.133 51.639 51.636v0.003zM886.491 317.162c0-101.025-46.665-168.053-85.782-206.497-46.987-46.139-95.027-63.605-103.717-64.161h-0.673c-8.777 0.556-56.73 18.022-103.687 64.161-39.146 38.444-85.782 105.472-85.782 206.497v96.549l3.394 0.995c70.197 20.495 131.249 46.99 188.067 79.973l-4.011-2.149 2.341 1.346 2.341-1.317c52.733-30.491 113.754-56.971 177.889-76.26l6.168-1.593 3.394-0.995zM961.946 296.214c0-12.927-10.479-23.406-23.406-23.406v0h-26.624l0.614 5.266c1.397 11.668 2.194 25.18 2.194 38.879 0 0.053 0 0.105 0 0.158v-0.008 107.286c-0.025 6.483-4.393 11.938-10.345 13.61l-0.1 0.024c-76.253 21.248-142.851 50.027-204.389 86.449l3.889-2.13c-2.050 1.213-4.518 1.93-7.153 1.93s-5.103-0.717-7.22-1.967l0.066 0.036c-57.674-34.589-124.302-63.391-194.771-82.962l-5.728-1.358c-6.052-1.695-10.42-7.151-10.445-13.631v-107.23c0.003-13.755 0.81-27.318 2.379-40.649l-0.155 1.62 0.585-5.266h-395.937c-12.927 0-23.406 10.479-23.406 23.406v0 325.632h899.95zM961.946 650.225h-899.891v84.846h899.891zM961.946 763.421h-899.891v61.44c0 12.927 10.479 23.406 23.406 23.406v0h853.138c12.927 0 23.406-10.479 23.406-23.406v0zM255.415 320.029c0.034 0 0.073 0 0.113 0 44.29 0 80.194 35.904 80.194 80.194s-35.904 80.194-80.194 80.194c-11.295 0-22.044-2.335-31.792-6.549l0.52 0.2-1.843-0.761-1.843 0.761c-9.132 3.995-19.775 6.32-30.96 6.32-0.070 0-0.14 0-0.21 0h0.011c-0.456 0.009-0.993 0.015-1.532 0.015-44.29 0-80.194-35.904-80.194-80.194s35.904-80.194 80.194-80.194c0.539 0 1.076 0.005 1.612 0.016l-0.080-0.001c0.034 0 0.075 0 0.116 0 11.214 0 21.884 2.325 31.557 6.518l-0.514-0.198 1.843 0.761 1.843-0.761c9.187-3.995 19.888-6.32 31.132-6.32 0.009 0 0.019 0 0.028 0h-0.002zM256.176 444.518l-5.53 8.309 9.918-0.995c26.382-2.669 46.8-24.762 46.8-51.624s-20.418-48.955-46.581-51.606l-0.219-0.018-9.918-0.965 5.53 8.28c8.395 12.454 13.4 27.798 13.4 44.31s-5.005 31.856-13.581 44.595l0.181-0.286zM189.411 348.321c-0.009 0-0.019 0-0.029 0-28.665 0-51.902 23.237-51.902 51.902s23.237 51.902 51.902 51.902c28.665 0 51.902-23.237 51.902-51.902v0c-0.033-28.641-23.234-51.852-51.868-51.902h-0.005zM220.394 565.292h-97.046c-7.539-0.354-13.517-6.552-13.517-14.146s5.978-13.792 13.485-14.145l0.032-0.001h97.046c0.192-0.009 0.417-0.015 0.643-0.015 7.821 0 14.16 6.34 14.16 14.16s-6.34 14.16-14.16 14.16c-0.226 0-0.451-0.005-0.675-0.016l0.032 0.001zM276.158 565.292h-0.878c-0.192 0.009-0.417 0.015-0.643 0.015-7.821 0-14.16-6.34-14.16-14.16s6.34-14.16 14.16-14.16c0.226 0 0.451 0.005 0.675 0.016l-0.032-0.001h0.878c0.192-0.009 0.417-0.015 0.643-0.015 7.821 0 14.16 6.34 14.16 14.16s-6.34 14.16-14.16 14.16c-0.226 0-0.451-0.005-0.675-0.016l0.032 0.001zM776.894 357.303l-104.214-104.214-56.203 56.203c-2.594 2.79-6.284 4.529-10.381 4.529-7.821 0-14.16-6.34-14.16-14.16 0-4.097 1.74-7.787 4.52-10.373l0.009-0.008 66.209-66.209c2.559-2.565 6.097-4.153 10.006-4.153s7.447 1.587 10.006 4.152v0l114.103 114.103c2.565 2.559 4.153 6.097 4.153 10.006s-1.587 7.447-4.152 10.006v0c-2.565 2.552-6.102 4.129-10.007 4.129-3.846 0-7.335-1.53-9.891-4.016l0.003 0.003z" />
<glyph unicode="&#xe914;" glyph-name="technical-intervention-icon" d="M395.264 660.173c-2.577 28.57-15.718 55.142-36.864 74.547-21.402 21.606-42.598 43.622-64.512 64.922-9.626 9.216-11.059 16.998 0 25.702l4.198 4.198c42.701 44.851 48.742 45.773 104.038 16.077 90.982-48.742 141.141-149.743 125.047-251.699-3.994-17.681 2.27-36.096 16.162-47.718 99.738-98.645 198.997-197.632 297.779-296.96 34.97-31.607 48.145-80.759 33.69-125.628-11.537-43.793-47.531-76.834-92.16-84.582-41.95-9.199-85.641 4.625-114.671 36.25-99.14 99.123-199.083 197.53-297.796 296.96-12.254 14.541-31.744 20.77-50.176 16.060-117.914-16.179-230.707 53.641-268.8 166.4-8.397 27.341 9.421 38.195 23.859 52.224 31.949 31.334 20.48 30.72 54.067 0.922 22.016-19.763 40.96-42.803 64.307-61.44 36.727-31.369 88.934-36.983 131.482-14.131 48.145 23.45 76.322 74.667 70.349 127.898zM281.498 36.147c-43.52 3.55-81.135 31.778-96.666 72.602-21.282 43.469-13.107 95.607 20.48 130.458 27.853 30.737 59.392 59.307 88.269 89.702 10.24 11.162 17.203 10.257 27.443 0 47.787-48.93 96.358-97.434 145.715-145.493 11.878-11.571 11.264-18.534 0-29.406-27.648-26.197-53.965-53.965-81.101-80.691-27.597-27.034-65.655-40.619-104.141-37.171zM667.136 488.96c-13.005 15.053-26.522 28.57-37.461 43.93-9.335 13.107 6.332 18.022 12.578 24.269 52.958 53.76 106.291 106.906 159.744 160.051 9.591 7.851 15.531 19.285 16.486 31.642 0.546 14.609 8.175 28.023 20.48 35.942 27.529 18.944 55.108 37.888 81.92 57.651 10.257 7.885 18.125 8.192 26.709-1.946 5.359-6.724 11.503-12.8 18.227-18.125 16.606-12.288 16.794-24.064 4.198-40.243-15.019-19.712-28.962-40.226-41.762-61.44-9.438-21.538-30.566-35.55-54.067-35.84-12.203 0-18.039-9.728-25.207-16.794-53.47-53.248-106.837-106.496-160.171-159.744-5.393-6.042-11.349-10.65-21.675-19.354z" />
<glyph unicode="&#xe915;" glyph-name="truck-01-01" d="M653.224 740.805h-596.67c-6.124 0-11.088-4.964-11.088-11.088v-502.462c0-6.124 4.964-11.088 11.088-11.088v0h115.215l0.644-3.833c7.633-42.395 44.243-74.142 88.269-74.142s80.636 31.747 88.187 73.597l0.082 0.545 0.673 3.833h356.001l0.673-3.833c7.597-42.421 44.214-74.199 88.254-74.199s80.658 31.778 88.173 73.655l0.081 0.544 0.673 3.833h83.792c6.124 0 11.088 4.964 11.088 11.088v0 172.617c-0.029 2.177-0.68 4.196-1.782 5.895l0.026-0.043-141.341 219.838c-1.991 3.081-5.408 5.091-9.294 5.091-0.014 0-0.027 0-0.041 0h-161.585v99.065c-0.017 6.128-4.988 11.088-11.118 11.088 0 0 0 0 0 0v0zM260.681 159.846c-37.164 0-67.291 30.127-67.291 67.291s30.127 67.291 67.291 67.291c37.164 0 67.291-30.127 67.291-67.291v0c-0.116-37.117-30.174-67.175-67.28-67.291h-0.011zM642.136 678.020h-533.884v-22.294h533.884v-354.567h-266.942v-22.206h266.942v-40.609h-292.571l-0.644 3.833c-7.376 42.623-44.077 74.631-88.254 74.631s-80.878-32.007-88.178-74.097l-0.077-0.534-0.673-3.833h-104.068v40.609h78.614v22.206h-78.614v417.441h574.464zM794.565 159.846c-37.164 0-67.291 30.127-67.291 67.291s30.127 67.291 67.291 67.291c37.164 0 67.291-30.127 67.291-67.291v0c-0.116-37.117-30.174-67.175-67.28-67.291h-0.011zM936.931 426.789h-209.774v119.106h132.71zM819.902 608.709l26.331-40.609h-130.194c-6.128-0.017-11.088-4.988-11.088-11.118 0 0 0 0 0 0v0-141.312c0-6.124 4.964-11.088 11.088-11.088v0h235.023l5.12-7.782v-95.642h-47.104v-22.206h47.104v-40.609h-72.616l-0.673 3.833c-7.597 42.421-44.214 74.199-88.254 74.199s-80.658-31.778-88.173-73.655l-0.081-0.544-0.673-3.833h-41.37v370.366zM260.71 242.966h-0.029c8.677 0 15.711-7.034 15.711-15.711v0.029c0-8.677-7.034-15.711-15.711-15.711h0.029c-8.677 0-15.711 7.034-15.711 15.711v-0.029c0 8.677 7.034 15.711 15.711 15.711zM794.565 242.966h-0.029c8.677 0 15.711-7.034 15.711-15.711v0.029c0-8.677-7.034-15.711-15.711-15.711h0.029c-8.677 0-15.711 7.034-15.711 15.711v-0.029c0 8.677 7.034 15.711 15.711 15.711z" />
<glyph unicode="&#xe916;" glyph-name="truck-icon-01" d="M279.728 366.46h-187.246c-0.168 0.009-0.364 0.015-0.562 0.015-5.962 0-10.796-4.833-10.796-10.796s4.833-10.796 10.796-10.796c0.198 0 0.394 0.005 0.589 0.016l-0.027-0.001h187.246c0.168-0.009 0.364-0.015 0.562-0.015 5.962 0 10.796 4.833 10.796 10.796s-4.833 10.796-10.796 10.796c-0.198 0-0.394-0.005-0.589-0.016l0.027 0.001zM318.903 488.521l78.087-78.029c1.949-1.953 4.644-3.162 7.621-3.162s5.672 1.208 7.621 3.162v0l140.434 140.434c1.951 1.951 3.157 4.645 3.157 7.621 0 5.953-4.826 10.778-10.778 10.778-2.976 0-5.671-1.206-7.621-3.157l-132.798-132.798-70.422 70.422c-1.923 1.795-4.512 2.897-7.359 2.897-5.962 0-10.796-4.833-10.796-10.796 0-2.84 1.096-5.423 2.889-7.351l-0.006 0.007zM654.424 304.026h-218.492c-5.716-0.307-10.234-5.016-10.234-10.781s4.518-10.474 10.207-10.78l0.027-0.001h218.58c0.168-0.009 0.364-0.015 0.562-0.015 5.962 0 10.796 4.833 10.796 10.796s-4.833 10.796-10.796 10.796c-0.198 0-0.394-0.005-0.589-0.016l0.027 0.001zM337.335 215.201c0-14.575-11.815-26.39-26.39-26.39s-26.39 11.815-26.39 26.39c0 14.575 11.815 26.39 26.39 26.39s26.39-11.815 26.39-26.39zM852.553 215.201c0-14.575-11.815-26.39-26.39-26.39s-26.39 11.815-26.39 26.39c0 14.575 11.815 26.39 26.39 26.39s26.39-11.815 26.39-26.39zM977.452 230.824v156.058c-0.181 36.463-26.836 66.647-61.718 72.325l-0.425 0.057-2.487 0.439-25.805 103.161 3.92 0.848c4.896 1.086 8.504 5.387 8.514 10.532v15.595c-0.033 31.802-25.805 57.574-57.604 57.607h-114.106v35.986c0 14.542-11.789 26.331-26.331 26.331v0h-562.205c-14.542 0-26.331-11.789-26.331-26.331v0-265.333c0.307-5.716 5.016-10.234 10.781-10.234s10.474 4.518 10.78 10.207l0.001 0.027v265.333c0 2.666 2.161 4.827 4.827 4.827v0h562c2.666 0 4.827-2.161 4.827-4.827v0-265.333c0.307-5.716 5.016-10.234 10.781-10.234s10.474 4.518 10.78 10.207l0.001 0.027v20.48h176.772c22.808-0.056 42.131-14.915 48.873-35.476l0.103-0.364 1.638-5.032h-50.82c-5.95-0.017-10.767-4.844-10.767-10.796 0 0 0 0 0 0v0-31.217c0.033-23.184 18.827-41.967 42.012-41.984h20.482v-72.090h-44.91l-0.907 2.604c-12.38 35.13-45.287 59.856-83.968 59.856s-71.588-24.725-83.777-59.234l-0.191-0.622-0.878-2.604h-13.663v114.103c0.009 0.168 0.015 0.364 0.015 0.562 0 5.962-4.833 10.796-10.796 10.796s-10.796-4.833-10.796-10.796c0-0.198 0.005-0.394 0.016-0.589l-0.001 0.027v-114.103h-310.126l-0.907 2.604c-12.392 35.108-45.288 59.813-83.953 59.813s-71.561-24.705-83.762-59.192l-0.192-0.622-0.907-2.604h-87.040c-2.666 0-4.827 2.161-4.827 4.827v36.016h67.291c5.716 0.307 10.234 5.016 10.234 10.781s-4.518 10.474-10.207 10.78l-0.027 0.001h-140.434c-5.716-0.307-10.234-5.016-10.234-10.781s4.518-10.474 10.207-10.78l0.027-0.001h51.58v-36.045c0-14.542 11.789-26.331 26.331-26.331v0h83.207v-4.857c0.906-48.374 40.334-87.242 88.839-87.242s87.934 38.867 88.838 87.157l0.001 0.085v4.857h337.247v-4.857c0.906-48.374 40.334-87.242 88.839-87.242s87.934 38.867 88.838 87.157l0.001 0.085v4.857h51.756c5.923 0.017 10.721 4.814 10.737 10.736v0.002zM727.654 625.796h114.103c19.852-0.066 35.924-16.159 35.957-36.012v-4.83h-150.060zM727.654 460.054v103.336h136.923l25.834-103.307zM310.945 147.939c-37.164 0-67.291 30.127-67.291 67.291s30.127 67.291 67.291 67.291c37.164 0 67.291-30.127 67.291-67.291v0c0-37.164-30.127-67.291-67.291-67.291v0zM826.163 147.939c-37.164 0-67.291 30.127-67.291 67.291s30.127 67.291 67.291 67.291c37.164 0 67.291-30.127 67.291-67.291v0c0-37.164-30.127-67.291-67.291-67.291v0zM955.889 335.184h-20.48c-11.311 0-20.48 9.169-20.48 20.48v0 20.48h40.96z" />
<glyph unicode="&#xe917;" glyph-name="true-01" d="M402.403 107.564h3.452c19.751 1.232 37.141 10.421 49.163 24.367l0.077 0.091 477.125 558.811c10.856 12.684 17.462 29.285 17.462 47.43 0 21.498-9.275 40.831-24.042 54.213l-0.062 0.055c-12.223 11.038-28.5 17.792-46.355 17.792-21.139 0-40.067-9.468-52.775-24.394l-0.081-0.098-427.681-500.736-219.575 224.929c-12.579 13.050-30.212 21.154-49.737 21.154s-37.158-8.105-49.717-21.133l-0.020-0.021c-12.737-13.176-20.586-31.147-20.586-50.951s7.849-37.775 20.606-50.972l-0.020 0.021 272.677-279.406c12.613-12.998 30.224-21.085 49.724-21.153h0.335z" />
<glyph unicode="&#xe918;" glyph-name="view-01" d="M978.476 452.506c-8.368 11.352-207.726 277.943-462.643 277.943s-454.393-266.591-462.643-277.914c-3.715-4.99-5.948-11.275-5.948-18.081s2.233-13.091 6.005-18.162l-0.058 0.081c8.368-11.323 207.872-277.943 462.643-277.943s454.276 266.562 462.643 277.943c3.726 4.981 5.965 11.262 5.965 18.066s-2.24 13.085-6.022 18.146l0.057-0.080zM515.833 199.724c-187.685 0-350.237 176.918-398.336 234.759 48.040 57.871 210.183 234.701 398.336 234.701s350.179-176.889 398.365-234.759c-48.187-57.871-210.271-234.701-398.365-234.701zM515.833 618.101c-102.224 0.059-185.227-82.33-185.227-183.647s83.149-183.706 185.373-183.706 185.403 82.417 185.403 183.706-83.324 183.706-185.549 183.706zM515.833 311.925c-67.159 0.629-121.359 55.218-121.359 122.465 0 67.639 54.832 122.47 122.47 122.47s122.467-54.829 122.47-122.465v0c-0.431-67.699-55.411-122.413-123.17-122.413-0.145 0-0.29 0-0.434 0.001h0.022z" />
<glyph unicode="&#xe919;" glyph-name="whatsapp-01" d="M838.298 767.249c-84.463 84.446-199.117 131.703-318.549 131.311-248.218 0-450.236-200.909-450.406-448.017-0.051-78.677 20.685-155.972 60.143-224.034l-63.898-232.26 238.677 62.31c66.065-35.806 140.015-54.528 215.159-54.528h0.239c248.218 0 450.304 201.062 450.355 448.154 0.393 119.074-47.070 233.318-131.721 317.065zM738.458 308.975c-9.489-26.129-54.443-50.005-76.066-53.214-23.654-4.045-47.923-2.509-70.844 4.454-21.794 6.707-43.23 14.575-64.171 23.586-112.913 48.486-186.726 161.468-192.29 169.079s-45.909 60.74-45.909 115.866c0 55.108 29.065 82.176 39.39 93.423 7.612 8.636 18.483 13.705 29.986 13.978 7.475 0 14.711-0.051 21.589-0.375s16.179 2.611 25.293-19.217c9.37-22.409 31.744-77.534 34.679-83.149 3.635-5.939 3.994-13.329 0.973-19.593-3.755-7.492-15.957-23.262-28.109-38.332-4.949-6.144-11.503-11.639-4.949-22.835 6.554-11.213 29.15-47.906 62.618-77.551 42.974-38.042 79.206-50.142 90.47-55.603s17.835-4.506 24.405 2.935c6.554 7.441 28.092 32.7 35.601 43.878s14.95 9.335 25.293 5.581c10.359-3.738 65.707-30.805 76.937-36.42s18.893-8.482 21.692-13.158 2.884-27.204-6.588-53.333z" />
</font></defs></svg>